 Primary Metabolites & Reactive FGs:
 > Metabolism likely: secondary alcohol -> ketone
 > Metabolism likely: aromatic OH oxidation
 > Metabolism likely: benzylic-like H -> alcohol

 Principal Descriptors:                             (Range 95% of Drugs)
     Solute        Molecular Weight      =   316.439  ( 130.0 / 725.0) 
     Solute        Dipole Moment (D)     =     6.270  (   1.0 /  12.5) 
     Solute        Total        SASA     =   558.039  ( 300.0 /1000.0) 
     Solute        Hydrophobic  SASA     =   417.838  (   0.0 / 750.0) 
     Solute        Hydrophilic  SASA     =    90.681  (   7.0 / 330.0) 
     Solute        Carbon Pi    SASA     =    49.520  (   0.0 / 450.0) 
     Solute        Weakly Polar SASA     =     0.000  (   0.0 / 175.0) 
     Solute        Molecular Volume (A^3)=  1034.732  ( 500.0 /2000.0) 
     Solute        vdW Polar SA (PSA)    =    60.198  (   7.0 / 200.0) 
     Solute        No. of Rotatable Bonds=     3.000  (   0.0 /  15.0) 
     Solute as Donor -    Hydrogen Bonds =     2.000  (   0.0 /   6.0) 
     Solute as Acceptor - Hydrogen Bonds =     4.450  (   2.0 /  20.0) 
     Solute Globularity   (Sphere = 1)   =     0.887  (  0.75 /  0.95) 
     Solute Ionization Potential (eV)    =     8.825  (   7.9 /  10.5) 
     Solute Electron Affinity    (eV)    =     1.141  (  -0.9 /   1.7) 
 Predictions for Properties:
   QP Polarizability (Angstroms^3)       =    33.803M (  13.0 /  70.0) 
   QP log P  for     hexadecane/gas      =     9.404M (   4.0 /  18.0) 
   QP log P  for     octanol/gas         =    16.546M (   8.0 /  35.0) 
   QP log P  for     water/gas           =     8.666M (   4.0 /  45.0) 
   QP log P  for     octanol/water       =     3.209  (  -2.0 /   6.5) 
   QP log S  for   aqueous solubility    =    -4.298  (  -6.5 /   0.5) 
   QP log S - conformation independent   =    -4.190  (  -6.5 /   0.5) 
   QP log K hsa Serum Protein Binding    =     0.424  (  -1.5 /   1.5) 
   QP log BB for     brain/blood         =    -0.386  (  -3.0 /   1.2) 
   No. of Primary Metabolites            =         3  (   1.0 /   8.0) 
   Predicted CNS Activity (-- to ++)     =      +/-
   HERG K+ Channel Blockage: log IC50    =    -3.603  (concern below -5)
   Apparent Caco-2 Permeability (nm/sec) =      1367  (<25 poor, >500 great)
   Apparent MDCK   Permeability (nm/sec) =       693  (<25 poor, >500 great)
   QP log Kp for skin permeability       =    -2.728  (Kp in cm/hr)
   Jm, max transdermal transport rate    =     0.030  (micrograms/cm^2-hr)
   Lipinski Rule of 5 Violations         =         0  (maximum is 4)
   Jorgensen Rule of 3 Violations        =         0  (maximum is 3)
   % Human Oral Absorption in GI (+-20%) =       100  (<25% is poor)
   Qual. Model for Human Oral Absorption =      HIGH  (>80% is high)

      An M indicates MW is outside training range.


       5 of   1712 molecules most similar to BC01067.mol:
          Name                           Similarity(%)
Pilsicainide                                  86.47
Terguride                                     86.09
Glibornuride                                  85.92
Oxymesterone                                  85.86
Epimestrol                                    85.54

    QP Breakdown (< for descriptor over training max)
                log Po/w                    -log S
 H-bond Donor        -0.600    H-bond Donor        -0.803 
 H-bond Acceptor     -2.167    H-bond Acceptor     -2.330 
 Volume               6.751    SASA                10.575 
 Ac x Dn^.5/SASA      0.500    Ac x Dn^.5/SASA      1.127 
 FISA                -0.628    Rotor Bonds         -0.488 
 Non-con amines       0.000    N Protonation        0.000 
 Non-con amides       0.000    Non-con amides       0.000 
 WPSA & PISA          0.058    WPSA                 0.000 
 Constant            -0.705    Constant            -3.783 
 Total                3.209    Total                4.298


                log BB                    log PMDCK
 Hydrophilic SASA    -0.769    Hydrophilic SASA    -0.929 
 WPSA                 0.000    WPSA                 0.000 
 Rotor Bonds         -0.181                         0.000 
 N Protonation        0.000    Non-con amines       0.000 
 FOSA                 0.000    COOH/SO3H acids      0.000 
 Constant             0.564    Constant             3.771
 Total               -0.386    Total                2.841

