 Primary Metabolites & Reactive FGs:
 > Metabolism likely: benzylic-like H -> alcohol
 > Metabolism likely: benzylic-like H -> alcohol
 > Metabolism likely: ether dealkylation

 Principal Descriptors:                             (Range 95% of Drugs)
     Solute        Molecular Weight      =   310.438  ( 130.0 / 725.0) 
     Solute        Dipole Moment (D)     =     2.670  (   1.0 /  12.5) 
     Solute        Total        SASA     =   620.574  ( 300.0 /1000.0) 
     Solute        Hydrophobic  SASA     =   454.747  (   0.0 / 750.0) 
     Solute        Hydrophilic  SASA     =    45.424  (   7.0 / 330.0) 
     Solute        Carbon Pi    SASA     =   120.404  (   0.0 / 450.0) 
     Solute        Weakly Polar SASA     =     0.000  (   0.0 / 175.0) 
     Solute        Molecular Volume (A^3)=  1078.428  ( 500.0 /2000.0) 
     Solute        vdW Polar SA (PSA)    =    24.830  (   7.0 / 200.0) 
     Solute        No. of Rotatable Bonds=     2.000  (   0.0 /  15.0) 
     Solute as Donor -    Hydrogen Bonds =     1.000  (   0.0 /   6.0) 
     Solute as Acceptor - Hydrogen Bonds =     2.750  (   2.0 /  20.0) 
     Solute Globularity   (Sphere = 1)   =     0.820  (  0.75 /  0.95) 
     Solute Ionization Potential (eV)    =     8.040  (   7.9 /  10.5) 
     Solute Electron Affinity    (eV)    =     0.007  (  -0.9 /   1.7) 
 Predictions for Properties:
   QP Polarizability (Angstroms^3)       =    36.870M (  13.0 /  70.0) 
   QP log P  for     hexadecane/gas      =     9.600M (   4.0 /  18.0) 
   QP log P  for     octanol/gas         =    14.526M (   8.0 /  35.0) 
   QP log P  for     water/gas           =     6.073M (   4.0 /  45.0) 
   QP log P  for     octanol/water       =     4.167  (  -2.0 /   6.5) 
   QP log S  for   aqueous solubility    =    -5.033  (  -6.5 /   0.5) 
   QP log S - conformation independent   =    -3.789  (  -6.5 /   0.5) 
   QP log K hsa Serum Protein Binding    =     0.936  (  -1.5 /   1.5) 
   QP log BB for     brain/blood         =     0.391  (  -3.0 /   1.2) 
   No. of Primary Metabolites            =         3  (   1.0 /   8.0) 
   Predicted CNS Activity (-- to ++)     =       + 
   HERG K+ Channel Blockage: log IC50    =    -5.753  (concern below -5)
   Apparent Caco-2 Permeability (nm/sec) =       916  (<25 poor, >500 great)
   Apparent MDCK   Permeability (nm/sec) =       497  (<25 poor, >500 great)
   QP log Kp for skin permeability       =    -3.803  (Kp in cm/hr)
   Jm, max transdermal transport rate    =     0.000  (micrograms/cm^2-hr)
   Lipinski Rule of 5 Violations         =         0  (maximum is 4)
   Jorgensen Rule of 3 Violations        =         0  (maximum is 3)
   % Human Oral Absorption in GI (+-20%) =       100  (<25% is poor)
   Qual. Model for Human Oral Absorption =      HIGH  (>80% is high)

      An M indicates MW is outside training range.


       5 of   1712 molecules most similar to BC01079.mol:
          Name                           Similarity(%)
Ethisterone                                   90.13
Calusterone                                   89.80
Pramiverine                                   89.09
Norethandrolone                               88.60
Gestrinone                                    87.34

    QP Breakdown (< for descriptor over training max)
                log Po/w                    -log S
 H-bond Donor        -0.300    H-bond Donor        -0.402 
 H-bond Acceptor     -1.339    H-bond Acceptor     -1.440 
 Volume               7.036    SASA                11.760 
 Ac x Dn^.5/SASA      0.197    Ac x Dn^.5/SASA      0.443 
 FISA                -0.314    Rotor Bonds         -0.326 
 Non-con amines      -0.527    N Protonation       -1.220 
 Non-con amides       0.000    Non-con amides       0.000 
 WPSA & PISA          0.141    WPSA                 0.000 
 Constant            -0.705    Constant            -3.783 
 Total                4.188    Total                5.033


                log BB                    log PMDCK
 Hydrophilic SASA    -0.451    Hydrophilic SASA    -0.466 
 WPSA                 0.000    WPSA                 0.000 
 Rotor Bonds         -0.121                         0.000 
 N Protonation        0.399    Non-con amines      -0.608 
 FOSA                 0.000    COOH/SO3H acids      0.000 
 Constant             0.564    Constant             3.771
 Total                0.391    Total                2.697

