 Primary Metabolites & Reactive FGs:
 > Metabolism likely: tertiary alcohol E1 or SN1
 > Reactive FG: unhindered ester
 > Metabolism likely: tertiary alcohol E1 or SN1
 > Metabolism likely: secondary alcohol -> ketone
 > Metabolism likely: secondary alcohol -> ketone
 > Reactive FG: carbonyl in 3-ring

 Principal Descriptors:                             (Range 95% of Drugs)
     Solute        Molecular Weight      =   328.318  ( 130.0 / 725.0) 
     Solute        Dipole Moment (D)     =     6.717  (   1.0 /  12.5) 
     Solute        Total        SASA     =   455.991  ( 300.0 /1000.0) 
     Solute        Hydrophobic  SASA     =   258.087  (   0.0 / 750.0) 
     Solute        Hydrophilic  SASA     =   197.904  (   7.0 / 330.0) 
     Solute        Carbon Pi    SASA     =     0.000  (   0.0 / 450.0) 
     Solute        Weakly Polar SASA     =     0.000  (   0.0 / 175.0) 
     Solute        Molecular Volume (A^3)=   870.386  ( 500.0 /2000.0) 
     Solute        vdW Polar SA (PSA)    =   142.013  (   7.0 / 200.0) 
     Solute        No. of Rotatable Bonds=     4.000  (   0.0 /  15.0) 
     Solute as Donor -    Hydrogen Bonds =     2.000  (   0.0 /   6.0) 
     Solute as Acceptor - Hydrogen Bonds =     9.900  (   2.0 /  20.0) 
     Solute Globularity   (Sphere = 1)   =     0.967  (  0.75 /  0.95)*
     Solute Ionization Potential (eV)    =     9.637  (   7.9 /  10.5) 
     Solute Electron Affinity    (eV)    =     0.239  (  -0.9 /   1.7) 
 Predictions for Properties:
   QP Polarizability (Angstroms^3)       =    26.110M (  13.0 /  70.0) 
   QP log P  for     hexadecane/gas      =     8.829M (   4.0 /  18.0) 
   QP log P  for     octanol/gas         =    17.555M (   8.0 /  35.0) 
   QP log P  for     water/gas           =    13.961M (   4.0 /  45.0) 
   QP log P  for     octanol/water       =    -0.455  (  -2.0 /   6.5) 
   QP log S  for   aqueous solubility    =    -1.289  (  -6.5 /   0.5) 
   QP log S - conformation independent   =    -2.034  (  -6.5 /   0.5) 
   QP log K hsa Serum Protein Binding    =    -0.711  (  -1.5 /   1.5) 
   QP log BB for     brain/blood         =    -1.089  (  -3.0 /   1.2) 
   No. of Primary Metabolites            =         4  (   1.0 /   8.0) 
   Predicted CNS Activity (-- to ++)     =      -- 
   HERG K+ Channel Blockage: log IC50    =    -2.069  (concern below -5)
   Apparent Caco-2 Permeability (nm/sec) =       131  (<25 poor, >500 great)
   Apparent MDCK   Permeability (nm/sec) =        55  (<25 poor, >500 great)
   QP log Kp for skin permeability       =    -4.783  (Kp in cm/hr)
   Jm, max transdermal transport rate    =     0.278  (micrograms/cm^2-hr)
   Lipinski Rule of 5 Violations         =         0  (maximum is 4)
   Jorgensen Rule of 3 Violations        =         0  (maximum is 3)
   % Human Oral Absorption in GI (+-20%) =        62  (<25% is poor)
   Qual. Model for Human Oral Absorption =    Medium  (>80% is high)

       A * indicates a violation of the 95% range. # stars =  1
      An M indicates MW is outside training range.


       5 of   1712 molecules most similar to BC01139.mol:
          Name                           Similarity(%)
Carboquone                                    77.73
Zidovudine                                    76.25
Scopolamine                                   75.81
Azidocillin                                   74.76
Azaribine                                     72.90

    QP Breakdown (< for descriptor over training max)
                log Po/w                    -log S
 H-bond Donor        -0.600    H-bond Donor        -0.803 
 H-bond Acceptor     -4.821    H-bond Acceptor     -5.184 
 Volume               5.678    SASA                 8.641 
 Ac x Dn^.5/SASA      1.362    Ac x Dn^.5/SASA      3.069 
 FISA                -1.370    Rotor Bonds         -0.651 
 Non-con amines       0.000    N Protonation        0.000 
 Non-con amides       0.000    Non-con amides       0.000 
 WPSA & PISA          0.000    WPSA                 0.000 
 Constant            -0.705    Constant            -3.783 
 Total               -0.455    Total                1.289


                log BB                    log PMDCK
 Hydrophilic SASA    -1.412    Hydrophilic SASA    -2.029 
 WPSA                 0.000    WPSA                 0.000 
 Rotor Bonds         -0.241                         0.000 
 N Protonation        0.000    Non-con amines       0.000 
 FOSA                 0.000    COOH/SO3H acids      0.000 
 Constant             0.564    Constant             3.771
 Total               -1.089    Total                1.742

