 Primary Metabolites & Reactive FGs:
 > Metabolism likely: aromatic OH oxidation
 > Metabolism likely: benzylic-like H -> alcohol
 > Metabolism likely: alpha, beta dehydrogenation at carbonyl

 Principal Descriptors:                             (Range 95% of Drugs)
     Solute        Molecular Weight      =   322.360  ( 130.0 / 725.0) 
     Solute        Dipole Moment (D)     =     2.270  (   1.0 /  12.5) 
     Solute        Total        SASA     =   602.937  ( 300.0 /1000.0) 
     Solute        Hydrophobic  SASA     =   200.153  (   0.0 / 750.0) 
     Solute        Hydrophilic  SASA     =   104.763  (   7.0 / 330.0) 
     Solute        Carbon Pi    SASA     =   298.021  (   0.0 / 450.0) 
     Solute        Weakly Polar SASA     =     0.000  (   0.0 / 175.0) 
     Solute        Molecular Volume (A^3)=  1042.002  ( 500.0 /2000.0) 
     Solute        vdW Polar SA (PSA)    =    65.361  (   7.0 / 200.0) 
     Solute        No. of Rotatable Bonds=     1.000  (   0.0 /  15.0) 
     Solute as Donor -    Hydrogen Bonds =     1.000  (   0.0 /   6.0) 
     Solute as Acceptor - Hydrogen Bonds =     4.250  (   2.0 /  20.0) 
     Solute Globularity   (Sphere = 1)   =     0.824  (  0.75 /  0.95) 
     Solute Ionization Potential (eV)    =     8.900  (   7.9 /  10.5) 
     Solute Electron Affinity    (eV)    =     0.505  (  -0.9 /   1.7) 
 Predictions for Properties:
   QP Polarizability (Angstroms^3)       =    37.751M (  13.0 /  70.0) 
   QP log P  for     hexadecane/gas      =    10.921M (   4.0 /  18.0) 
   QP log P  for     octanol/gas         =    16.246M (   8.0 /  35.0) 
   QP log P  for     water/gas           =     9.340M (   4.0 /  45.0) 
   QP log P  for     octanol/water       =     3.660  (  -2.0 /   6.5) 
   QP log S  for   aqueous solubility    =    -5.558  (  -6.5 /   0.5) 
   QP log S - conformation independent   =    -5.069  (  -6.5 /   0.5) 
   QP log K hsa Serum Protein Binding    =     0.585  (  -1.5 /   1.5) 
   QP log BB for     brain/blood         =    -0.524  (  -3.0 /   1.2) 
   No. of Primary Metabolites            =         3  (   1.0 /   8.0) 
   Predicted CNS Activity (-- to ++)     =      +/-
   HERG K+ Channel Blockage: log IC50    =    -5.795  (concern below -5)
   Apparent Caco-2 Permeability (nm/sec) =      1005  (<25 poor, >500 great)
   Apparent MDCK   Permeability (nm/sec) =       497  (<25 poor, >500 great)
   QP log Kp for skin permeability       =    -2.304  (Kp in cm/hr)
   Jm, max transdermal transport rate    =     0.004  (micrograms/cm^2-hr)
   Lipinski Rule of 5 Violations         =         0  (maximum is 4)
   Jorgensen Rule of 3 Violations        =         0  (maximum is 3)
   % Human Oral Absorption in GI (+-20%) =       100  (<25% is poor)
   Qual. Model for Human Oral Absorption =      HIGH  (>80% is high)

      An M indicates MW is outside training range.


       5 of   1712 molecules most similar to BC01162.mol:
          Name                           Similarity(%)
Pimobendan                                    91.00
Clozapine                                     89.89
Alosetron                                     89.33
Stanozolol                                    88.59
Atovaquone                                    88.32

    QP Breakdown (< for descriptor over training max)
                log Po/w                    -log S
 H-bond Donor        -0.300    H-bond Donor        -0.402 
 H-bond Acceptor     -2.070    H-bond Acceptor     -2.225 
 Volume               6.798    SASA                11.426 
 Ac x Dn^.5/SASA      0.313    Ac x Dn^.5/SASA      0.705 
 FISA                -0.725    Rotor Bonds         -0.163 
 Non-con amines       0.000    N Protonation        0.000 
 Non-con amides       0.000    Non-con amides       0.000 
 WPSA & PISA          0.349    WPSA                 0.000 
 Constant            -0.705    Constant            -3.783 
 Total                3.660    Total                5.558


                log BB                    log PMDCK
 Hydrophilic SASA    -1.028    Hydrophilic SASA    -1.074 
 WPSA                 0.000    WPSA                 0.000 
 Rotor Bonds         -0.060                         0.000 
 N Protonation        0.000    Non-con amines       0.000 
 FOSA                 0.000    COOH/SO3H acids      0.000 
 Constant             0.564    Constant             3.771
 Total               -0.524    Total                2.697

