 Primary Metabolites & Reactive FGs:
 > Reactive FG: alkyl halide
 > Reactive FG: heteroatom in 3-ring
 > Metabolism likely: tertiary alcohol E1 or SN1
 > Metabolism likely: secondary alcohol -> ketone
 > Metabolism likely: benzylic-like H -> alcohol

 Principal Descriptors:                             (Range 95% of Drugs)
     Solute        Molecular Weight      =   314.765  ( 130.0 / 725.0) 
     Solute        Dipole Moment (D)     =     7.297  (   1.0 /  12.5) 
     Solute        Total        SASA     =   492.406  ( 300.0 /1000.0) 
     Solute        Hydrophobic  SASA     =   289.353  (   0.0 / 750.0) 
     Solute        Hydrophilic  SASA     =   123.181  (   7.0 / 330.0) 
     Solute        Carbon Pi    SASA     =    33.895  (   0.0 / 450.0) 
     Solute        Weakly Polar SASA     =    45.977  (   0.0 / 175.0) 
     Solute        Molecular Volume (A^3)=   888.535  ( 500.0 /2000.0) 
     Solute        vdW Polar SA (PSA)    =    88.794  (   7.0 / 200.0) 
     Solute        No. of Rotatable Bonds=     4.000  (   0.0 /  15.0) 
     Solute as Donor -    Hydrogen Bonds =     0.000  (   0.0 /   6.0) 
     Solute as Acceptor - Hydrogen Bonds =     5.450  (   2.0 /  20.0) 
     Solute Globularity   (Sphere = 1)   =     0.908  (  0.75 /  0.95) 
     Solute Ionization Potential (eV)    =    10.679  (   7.9 /  10.5)*
     Solute Electron Affinity    (eV)    =     0.216  (  -0.9 /   1.7) 
 Predictions for Properties:
   QP Polarizability (Angstroms^3)       =    27.160M (  13.0 /  70.0) 
   QP log P  for     hexadecane/gas      =     8.150M (   4.0 /  18.0) 
   QP log P  for     octanol/gas         =    12.494M (   8.0 /  35.0) 
   QP log P  for     water/gas           =     6.474M (   4.0 /  45.0) 
   QP log P  for     octanol/water       =     1.800  (  -2.0 /   6.5) 
   QP log S  for   aqueous solubility    =    -2.244  (  -6.5 /   0.5) 
   QP log S - conformation independent   =    -3.246  (  -6.5 /   0.5) 
   QP log K hsa Serum Protein Binding    =    -0.430  (  -1.5 /   1.5) 
   QP log BB for     brain/blood         =    -0.561  (  -3.0 /   1.2) 
   No. of Primary Metabolites            =         3  (   1.0 /   8.0) 
   Predicted CNS Activity (-- to ++)     =      +/-
   HERG K+ Channel Blockage: log IC50    =    -3.187  (concern below -5)
   Apparent Caco-2 Permeability (nm/sec) =       672  (<25 poor, >500 great)
   Apparent MDCK   Permeability (nm/sec) =       575  (<25 poor, >500 great)
   QP log Kp for skin permeability       =    -3.286  (Kp in cm/hr)
   Jm, max transdermal transport rate    =     0.929  (micrograms/cm^2-hr)
   Lipinski Rule of 5 Violations         =         0  (maximum is 4)
   Jorgensen Rule of 3 Violations        =         0  (maximum is 3)
   % Human Oral Absorption in GI (+-20%) =        88  (<25% is poor)
   Qual. Model for Human Oral Absorption =      HIGH  (>80% is high)

       A * indicates a violation of the 95% range. # stars =  1
      An M indicates MW is outside training range.


       5 of   1712 molecules most similar to BC01190.mol:
          Name                           Similarity(%)
Scopolamine                                   87.67
Guacetisal                                    82.43
Azapropazone                                  80.65
Tritiozine                                    79.18
Nitisinone                                    78.80

    QP Breakdown (< for descriptor over training max)
                log Po/w                    -log S
 H-bond Donor         0.000    H-bond Donor         0.000 
 H-bond Acceptor     -2.654    H-bond Acceptor     -2.854 
 Volume               5.797    SASA                 9.331 
 Ac x Dn^.5/SASA      0.000    Ac x Dn^.5/SASA      0.000 
 FISA                -0.853    Rotor Bonds         -0.651 
 Non-con amines       0.000    N Protonation        0.000 
 Non-con amides       0.000    Non-con amides       0.000 
 WPSA & PISA          0.215    WPSA                 0.200 
 Constant            -0.705    Constant            -3.783 
 Total                1.800    Total                2.244


                log BB                    log PMDCK
 Hydrophilic SASA    -0.997    Hydrophilic SASA    -1.263 
 WPSA                 0.113    WPSA                 0.252 
 Rotor Bonds         -0.241                         0.000 
 N Protonation        0.000    Non-con amines       0.000 
 FOSA                 0.000    COOH/SO3H acids      0.000 
 Constant             0.564    Constant             3.771
 Total               -0.561    Total                2.760

