 Primary Metabolites & Reactive FGs:
 > Metabolism likely: secondary alcohol -> ketone
 > Metabolism likely: primary alcohol -> acid
 > Metabolism likely: benzylic-like H -> alcohol
 > Metabolism likely: allylic H -> alcohol
 > Metabolism likely: allylic H -> alcohol
 > Metabolism likely: allylic H -> alcohol
 > Metabolism likely: allylic H -> alcohol
 > Metabolism likely: allylic H -> alcohol
 > Reactive FG: acceptor carbonyl or derivative
 > Metabolism likely: allylic H -> alcohol

 Principal Descriptors:                             (Range 95% of Drugs)
     Solute        Molecular Weight      =   362.422  ( 130.0 / 725.0) 
     Solute        Dipole Moment (D)     =     4.825  (   1.0 /  12.5) 
     Solute        Total        SASA     =   582.294  ( 300.0 /1000.0) 
     Solute        Hydrophobic  SASA     =   351.492  (   0.0 / 750.0) 
     Solute        Hydrophilic  SASA     =   166.293  (   7.0 / 330.0) 
     Solute        Carbon Pi    SASA     =    64.509  (   0.0 / 450.0) 
     Solute        Weakly Polar SASA     =     0.000  (   0.0 / 175.0) 
     Solute        Molecular Volume (A^3)=  1100.867  ( 500.0 /2000.0) 
     Solute        vdW Polar SA (PSA)    =   108.950  (   7.0 / 200.0) 
     Solute        No. of Rotatable Bonds=     6.000  (   0.0 /  15.0) 
     Solute as Donor -    Hydrogen Bonds =     1.000  (   0.0 /   6.0) 
     Solute as Acceptor - Hydrogen Bonds =     7.400  (   2.0 /  20.0) 
     Solute Globularity   (Sphere = 1)   =     0.885  (  0.75 /  0.95) 
     Solute Ionization Potential (eV)    =     9.978  (   7.9 /  10.5) 
     Solute Electron Affinity    (eV)    =     0.379  (  -0.9 /   1.7) 
 Predictions for Properties:
   QP Polarizability (Angstroms^3)       =    34.666M (  13.0 /  70.0) 
   QP log P  for     hexadecane/gas      =    10.410M (   4.0 /  18.0) 
   QP log P  for     octanol/gas         =    17.078M (   8.0 /  35.0) 
   QP log P  for     water/gas           =    10.120M (   4.0 /  45.0) 
   QP log P  for     octanol/water       =     2.062  (  -2.0 /   6.5) 
   QP log S  for   aqueous solubility    =    -3.269  (  -6.5 /   0.5) 
   QP log S - conformation independent   =    -3.543  (  -6.5 /   0.5) 
   QP log K hsa Serum Protein Binding    =    -0.054  (  -1.5 /   1.5) 
   QP log BB for     brain/blood         =    -1.212  (  -3.0 /   1.2) 
   No. of Primary Metabolites            =         9  (   1.0 /   8.0)*
   Predicted CNS Activity (-- to ++)     =      -- 
   HERG K+ Channel Blockage: log IC50    =    -3.693  (concern below -5)
   Apparent Caco-2 Permeability (nm/sec) =       262  (<25 poor, >500 great)
   Apparent MDCK   Permeability (nm/sec) =       116  (<25 poor, >500 great)
   QP log Kp for skin permeability       =    -3.781  (Kp in cm/hr)
   Jm, max transdermal transport rate    =     0.032  (micrograms/cm^2-hr)
   Lipinski Rule of 5 Violations         =         0  (maximum is 4)
   Jorgensen Rule of 3 Violations        =         1  (maximum is 3)
   % Human Oral Absorption in GI (+-20%) =        82  (<25% is poor)
   Qual. Model for Human Oral Absorption =    Medium  (>80% is high)

       A * indicates a violation of the 95% range. # stars =  1
      An M indicates MW is outside training range.


       5 of   1712 molecules most similar to BC01226.mol:
          Name                           Similarity(%)
Acenocoumarol                                 80.71
Pantoprazole                                  80.60
Phentetramine                                 79.73
Etersalate                                    79.35
Bunazosin                                     77.51

    QP Breakdown (< for descriptor over training max)
                log Po/w                    -log S
 H-bond Donor        -0.300    H-bond Donor        -0.402 
 H-bond Acceptor     -3.604    H-bond Acceptor     -3.875 
 Volume               7.182    SASA                11.034 
 Ac x Dn^.5/SASA      0.564    Ac x Dn^.5/SASA      1.270 
 FISA                -1.151    Rotor Bonds         -0.977 
 Non-con amines       0.000    N Protonation        0.000 
 Non-con amides       0.000    Non-con amides       0.000 
 WPSA & PISA          0.076    WPSA                 0.000 
 Constant            -0.705    Constant            -3.783 
 Total                2.062    Total                3.269


                log BB                    log PMDCK
 Hydrophilic SASA    -1.414    Hydrophilic SASA    -1.705 
 WPSA                 0.000    WPSA                 0.000 
 Rotor Bonds         -0.362                         0.000 
 N Protonation        0.000    Non-con amines       0.000 
 FOSA                 0.000    COOH/SO3H acids      0.000 
 Constant             0.564    Constant             3.771
 Total               -1.212    Total                2.066

