 Primary Metabolites & Reactive FGs:
 > Reactive FG: heteroatom in 3-ring
 > Metabolism likely: primary alcohol -> acid
 > Metabolism likely: primary alcohol -> acid
 > Metabolism likely: benzylic-like H -> alcohol
 > Metabolism likely: allylic H -> alcohol
 > Metabolism likely: allylic H -> alcohol
 > Metabolism likely: allylic H -> alcohol
 > Reactive FG: acceptor carbonyl or derivative
 > Metabolism likely: allylic H -> alcohol

 Principal Descriptors:                             (Range 95% of Drugs)
     Solute        Molecular Weight      =   378.421  ( 130.0 / 725.0) 
     Solute        Dipole Moment (D)     =     8.380  (   1.0 /  12.5) 
     Solute        Total        SASA     =   566.056  ( 300.0 /1000.0) 
     Solute        Hydrophobic  SASA     =   356.784  (   0.0 / 750.0) 
     Solute        Hydrophilic  SASA     =   165.991  (   7.0 / 330.0) 
     Solute        Carbon Pi    SASA     =    43.281  (   0.0 / 450.0) 
     Solute        Weakly Polar SASA     =     0.000  (   0.0 / 175.0) 
     Solute        Molecular Volume (A^3)=  1098.090  ( 500.0 /2000.0) 
     Solute        vdW Polar SA (PSA)    =   124.007  (   7.0 / 200.0) 
     Solute        No. of Rotatable Bonds=     7.000  (   0.0 /  15.0) 
     Solute as Donor -    Hydrogen Bonds =     1.000  (   0.0 /   6.0) 
     Solute as Acceptor - Hydrogen Bonds =     9.400  (   2.0 /  20.0) 
     Solute Globularity   (Sphere = 1)   =     0.909  (  0.75 /  0.95) 
     Solute Ionization Potential (eV)    =    10.005  (   7.9 /  10.5) 
     Solute Electron Affinity    (eV)    =     0.282  (  -0.9 /   1.7) 
 Predictions for Properties:
   QP Polarizability (Angstroms^3)       =    33.710M (  13.0 /  70.0) 
   QP log P  for     hexadecane/gas      =    10.325M (   4.0 /  18.0) 
   QP log P  for     octanol/gas         =    18.414M (   8.0 /  35.0) 
   QP log P  for     water/gas           =    11.684M (   4.0 /  45.0) 
   QP log P  for     octanol/water       =     1.220  (  -2.0 /   6.5) 
   QP log S  for   aqueous solubility    =    -2.141  (  -6.5 /   0.5) 
   QP log S - conformation independent   =    -2.934  (  -6.5 /   0.5) 
   QP log K hsa Serum Protein Binding    =    -0.470  (  -1.5 /   1.5) 
   QP log BB for     brain/blood         =    -1.197  (  -3.0 /   1.2) 
   No. of Primary Metabolites            =         7  (   1.0 /   8.0) 
   Predicted CNS Activity (-- to ++)     =      -- 
   HERG K+ Channel Blockage: log IC50    =    -3.205  (concern below -5)
   Apparent Caco-2 Permeability (nm/sec) =       264  (<25 poor, >500 great)
   Apparent MDCK   Permeability (nm/sec) =       117  (<25 poor, >500 great)
   QP log Kp for skin permeability       =    -3.754  (Kp in cm/hr)
   Jm, max transdermal transport rate    =     0.482  (micrograms/cm^2-hr)
   Lipinski Rule of 5 Violations         =         0  (maximum is 4)
   Jorgensen Rule of 3 Violations        =         1  (maximum is 3)
   % Human Oral Absorption in GI (+-20%) =        77  (<25% is poor)
   Qual. Model for Human Oral Absorption =    Medium  (>80% is high)

      An M indicates MW is outside training range.


       5 of   1712 molecules most similar to BC01258.mol:
          Name                           Similarity(%)
Scopolamine                                   74.01
Cefdinir                                      73.32
Etersalate                                    72.80
Azidocillin                                   71.75
Cortisone                                     71.45

    QP Breakdown (< for descriptor over training max)
                log Po/w                    -log S
 H-bond Donor        -0.300    H-bond Donor        -0.402 
 H-bond Acceptor     -4.578    H-bond Acceptor     -4.922 
 Volume               7.164    SASA                10.727 
 Ac x Dn^.5/SASA      0.737    Ac x Dn^.5/SASA      1.660 
 FISA                -1.149    Rotor Bonds         -1.140 
 Non-con amines       0.000    N Protonation        0.000 
 Non-con amides       0.000    Non-con amides       0.000 
 WPSA & PISA          0.051    WPSA                 0.000 
 Constant            -0.705    Constant            -3.783 
 Total                1.220    Total                2.141


                log BB                    log PMDCK
 Hydrophilic SASA    -1.338    Hydrophilic SASA    -1.701 
 WPSA                 0.000    WPSA                 0.000 
 Rotor Bonds         -0.422                         0.000 
 N Protonation        0.000    Non-con amines       0.000 
 FOSA                 0.000    COOH/SO3H acids      0.000 
 Constant             0.564    Constant             3.771
 Total               -1.197    Total                2.069

