 Primary Metabolites & Reactive FGs:
 > Metabolism likely: primary alcohol -> acid
 > Reactive FG: unhindered ester
 > Metabolism likely: allylic H -> alcohol
 > Metabolism likely: benzylic-like H -> alcohol
 > Metabolism likely: allylic H -> alcohol
 > Reactive FG: acetal or analog

 Principal Descriptors:                             (Range 95% of Drugs)
     Solute        Molecular Weight      =   226.229  ( 130.0 / 725.0) 
     Solute        Dipole Moment (D)     =     3.250  (   1.0 /  12.5) 
     Solute        Total        SASA     =   478.481  ( 300.0 /1000.0) 
     Solute        Hydrophobic  SASA     =   247.054  (   0.0 / 750.0) 
     Solute        Hydrophilic  SASA     =   157.348  (   7.0 / 330.0) 
     Solute        Carbon Pi    SASA     =    74.080  (   0.0 / 450.0) 
     Solute        Weakly Polar SASA     =     0.000  (   0.0 / 175.0) 
     Solute        Molecular Volume (A^3)=   772.317  ( 500.0 /2000.0) 
     Solute        vdW Polar SA (PSA)    =    85.646  (   7.0 / 200.0) 
     Solute        No. of Rotatable Bonds=     4.000  (   0.0 /  15.0) 
     Solute as Donor -    Hydrogen Bonds =     2.000  (   0.0 /   6.0) 
     Solute as Acceptor - Hydrogen Bonds =     7.100  (   2.0 /  20.0) 
     Solute Globularity   (Sphere = 1)   =     0.851  (  0.75 /  0.95) 
     Solute Ionization Potential (eV)    =     9.766  (   7.9 /  10.5) 
     Solute Electron Affinity    (eV)    =     0.210  (  -0.9 /   1.7) 
 Predictions for Properties:
   QP Polarizability (Angstroms^3)       =    22.893M (  13.0 /  70.0) 
   QP log P  for     hexadecane/gas      =     7.308M (   4.0 /  18.0) 
   QP log P  for     octanol/gas         =    13.990  (   8.0 /  35.0) 
   QP log P  for     water/gas           =    11.485  (   4.0 /  45.0) 
   QP log P  for     octanol/water       =     0.205  (  -2.0 /   6.5) 
   QP log S  for   aqueous solubility    =    -2.210  (  -6.5 /   0.5) 
   QP log S - conformation independent   =    -1.541  (  -6.5 /   0.5) 
   QP log K hsa Serum Protein Binding    =    -0.668  (  -1.5 /   1.5) 
   QP log BB for     brain/blood         =    -1.127  (  -3.0 /   1.2) 
   No. of Primary Metabolites            =         4  (   1.0 /   8.0) 
   Predicted CNS Activity (-- to ++)     =      -- 
   HERG K+ Channel Blockage: log IC50    =    -4.299  (concern below -5)
   Apparent Caco-2 Permeability (nm/sec) =       318  (<25 poor, >500 great)
   Apparent MDCK   Permeability (nm/sec) =       143  (<25 poor, >500 great)
   QP log Kp for skin permeability       =    -3.774  (Kp in cm/hr)
   Jm, max transdermal transport rate    =     0.234  (micrograms/cm^2-hr)
   Lipinski Rule of 5 Violations         =         0  (maximum is 4)
   Jorgensen Rule of 3 Violations        =         0  (maximum is 3)
   % Human Oral Absorption in GI (+-20%) =        73  (<25% is poor)
   Qual. Model for Human Oral Absorption =      HIGH  (>80% is high)

      An M indicates MW is outside training range.


       5 of   1712 molecules most similar to BC01566.mol:
          Name                           Similarity(%)
Ethoxzolamide                                 85.49
Metesculetol                                  84.28
Stavudine                                     83.83
Didanosine                                    82.88
Sulfathiazole                                 82.71

    QP Breakdown (< for descriptor over training max)
                log Po/w                    -log S
 H-bond Donor        -0.600    H-bond Donor        -0.803 
 H-bond Acceptor     -3.458    H-bond Acceptor     -3.718 
 Volume               5.039    SASA                 9.067 
 Ac x Dn^.5/SASA      0.931    Ac x Dn^.5/SASA      2.098 
 FISA                -1.089    Rotor Bonds         -0.651 
 Non-con amines       0.000    N Protonation        0.000 
 Non-con amides       0.000    Non-con amides       0.000 
 WPSA & PISA          0.087    WPSA                 0.000 
 Constant            -0.705    Constant            -3.783 
 Total                0.205    Total                2.210


                log BB                    log PMDCK
 Hydrophilic SASA    -1.449    Hydrophilic SASA    -1.613 
 WPSA                 0.000    WPSA                 0.000 
 Rotor Bonds         -0.241                         0.000 
 N Protonation        0.000    Non-con amines       0.000 
 FOSA                 0.000    COOH/SO3H acids      0.000 
 Constant             0.564    Constant             3.771
 Total               -1.127    Total                2.158

