 Primary Metabolites & Reactive FGs:
 > Metabolism likely: aromatic OH oxidation
 > Metabolism likely: aromatic OH oxidation
 > Metabolism likely: aromatic OH oxidation

 Principal Descriptors:                             (Range 95% of Drugs)
     Solute        Molecular Weight      =   244.203  ( 130.0 / 725.0) 
     Solute        Dipole Moment (D)     =     5.431  (   1.0 /  12.5) 
     Solute        Total        SASA     =   436.674  ( 300.0 /1000.0) 
     Solute        Hydrophobic  SASA     =     0.000  (   0.0 / 750.0) 
     Solute        Hydrophilic  SASA     =   184.521  (   7.0 / 330.0) 
     Solute        Carbon Pi    SASA     =   252.152  (   0.0 / 450.0) 
     Solute        Weakly Polar SASA     =     0.000  (   0.0 / 175.0) 
     Solute        Molecular Volume (A^3)=   723.271  ( 500.0 /2000.0) 
     Solute        vdW Polar SA (PSA)    =    97.652  (   7.0 / 200.0) 
     Solute        No. of Rotatable Bonds=     3.000  (   0.0 /  15.0) 
     Solute as Donor -    Hydrogen Bonds =     2.000  (   0.0 /   6.0) 
     Solute as Acceptor - Hydrogen Bonds =     3.750  (   2.0 /  20.0) 
     Solute Globularity   (Sphere = 1)   =     0.892  (  0.75 /  0.95) 
     Solute Ionization Potential (eV)    =     9.081  (   7.9 /  10.5) 
     Solute Electron Affinity    (eV)    =     0.728  (  -0.9 /   1.7) 
 Predictions for Properties:
   QP Polarizability (Angstroms^3)       =    23.273M (  13.0 /  70.0) 
   QP log P  for     hexadecane/gas      =     8.527M (   4.0 /  18.0) 
   QP log P  for     octanol/gas         =    13.245  (   8.0 /  35.0) 
   QP log P  for     water/gas           =     9.701  (   4.0 /  45.0) 
   QP log P  for     octanol/water       =     1.145  (  -2.0 /   6.5) 
   QP log S  for   aqueous solubility    =    -2.451  (  -6.5 /   0.5) 
   QP log S - conformation independent   =    -3.479  (  -6.5 /   0.5) 
   QP log K hsa Serum Protein Binding    =    -0.256  (  -1.5 /   1.5) 
   QP log BB for     brain/blood         =    -1.162  (  -3.0 /   1.2) 
   No. of Primary Metabolites            =         3  (   1.0 /   8.0) 
   Predicted CNS Activity (-- to ++)     =      -- 
   HERG K+ Channel Blockage: log IC50    =    -4.476  (concern below -5)
   Apparent Caco-2 Permeability (nm/sec) =       176  (<25 poor, >500 great)
   Apparent MDCK   Permeability (nm/sec) =        75  (<25 poor, >500 great)
   QP log Kp for skin permeability       =    -3.744  (Kp in cm/hr)
   Jm, max transdermal transport rate    =     0.156  (micrograms/cm^2-hr)
   Lipinski Rule of 5 Violations         =         0  (maximum is 4)
   Jorgensen Rule of 3 Violations        =         0  (maximum is 3)
   % Human Oral Absorption in GI (+-20%) =        74  (<25% is poor)
   Qual. Model for Human Oral Absorption =      HIGH  (>80% is high)

      An M indicates MW is outside training range.


       5 of   1712 molecules most similar to BC01720.mol:
          Name                           Similarity(%)
Chlorazanil                                   88.12
Osalmid                                       87.64
Azathioprine                                  87.62
Salizid                                       87.16
Aminoglutethimide                             87.10

    QP Breakdown (< for descriptor over training max)
                log Po/w                    -log S
 H-bond Donor        -0.600    H-bond Donor        -0.803 
 H-bond Acceptor     -1.826    H-bond Acceptor     -1.963 
 Volume               4.719    SASA                 8.275 
 Ac x Dn^.5/SASA      0.539    Ac x Dn^.5/SASA      1.214 
 FISA                -1.277    Rotor Bonds         -0.488 
 Non-con amines       0.000    N Protonation        0.000 
 Non-con amides       0.000    Non-con amides       0.000 
 WPSA & PISA          0.295    WPSA                 0.000 
 Constant            -0.705    Constant            -3.783 
 Total                1.145    Total                2.451


                log BB                    log PMDCK
 Hydrophilic SASA    -1.545    Hydrophilic SASA    -1.891 
 WPSA                 0.000    WPSA                 0.000 
 Rotor Bonds         -0.181                         0.000 
 N Protonation        0.000    Non-con amines       0.000 
 FOSA                 0.000    COOH/SO3H acids      0.000 
 Constant             0.564    Constant             3.771
 Total               -1.162    Total                1.879

