 Primary Metabolites & Reactive FGs:
 > Metabolism likely: aromatic OH oxidation
 > Metabolism likely: amine dealkylation
 > Metabolism likely: benzylic-like H -> alcohol

 Principal Descriptors:                             (Range 95% of Drugs)
     Solute        Molecular Weight      =   216.282  ( 130.0 / 725.0) 
     Solute        Dipole Moment (D)     =     5.143  (   1.0 /  12.5) 
     Solute        Total        SASA     =   490.666  ( 300.0 /1000.0) 
     Solute        Hydrophobic  SASA     =   219.211  (   0.0 / 750.0) 
     Solute        Hydrophilic  SASA     =   117.552  (   7.0 / 330.0) 
     Solute        Carbon Pi    SASA     =   153.903  (   0.0 / 450.0) 
     Solute        Weakly Polar SASA     =     0.000  (   0.0 / 175.0) 
     Solute        Molecular Volume (A^3)=   808.019  ( 500.0 /2000.0) 
     Solute        vdW Polar SA (PSA)    =    52.930  (   7.0 / 200.0) 
     Solute        No. of Rotatable Bonds=     4.000  (   0.0 /  15.0) 
     Solute as Donor -    Hydrogen Bonds =     1.000  (   0.0 /   6.0) 
     Solute as Acceptor - Hydrogen Bonds =     4.250  (   2.0 /  20.0) 
     Solute Globularity   (Sphere = 1)   =     0.855  (  0.75 /  0.95) 
     Solute Ionization Potential (eV)    =     9.330  (   7.9 /  10.5) 
     Solute Electron Affinity    (eV)    =     0.069  (  -0.9 /   1.7) 
 Predictions for Properties:
   QP Polarizability (Angstroms^3)       =    25.084M (  13.0 /  70.0) 
   QP log P  for     hexadecane/gas      =     7.758M (   4.0 /  18.0) 
   QP log P  for     octanol/gas         =    11.974  (   8.0 /  35.0) 
   QP log P  for     water/gas           =     7.515  (   4.0 /  45.0) 
   QP log P  for     octanol/water       =     1.421  (  -2.0 /   6.5) 
   QP log S  for   aqueous solubility    =    -2.884  (  -6.5 /   0.5) 
   QP log S - conformation independent   =    -2.318  (  -6.5 /   0.5) 
   QP log K hsa Serum Protein Binding    =    -0.152  (  -1.5 /   1.5) 
   QP log BB for     brain/blood         =    -0.351  (  -3.0 /   1.2) 
   No. of Primary Metabolites            =         3  (   1.0 /   8.0) 
   Predicted CNS Activity (-- to ++)     =       + 
   HERG K+ Channel Blockage: log IC50    =    -5.337  (concern below -5)
   Apparent Caco-2 Permeability (nm/sec) =       189  (<25 poor, >500 great)
   Apparent MDCK   Permeability (nm/sec) =        90  (<25 poor, >500 great)
   QP log Kp for skin permeability       =    -4.822  (Kp in cm/hr)
   Jm, max transdermal transport rate    =     0.004  (micrograms/cm^2-hr)
   Lipinski Rule of 5 Violations         =         0  (maximum is 4)
   Jorgensen Rule of 3 Violations        =         0  (maximum is 3)
   % Human Oral Absorption in GI (+-20%) =        76  (<25% is poor)
   Qual. Model for Human Oral Absorption =      HIGH  (>80% is high)

      An M indicates MW is outside training range.


       5 of   1712 molecules most similar to BC01776.mol:
          Name                           Similarity(%)
Viloxazine                                    92.30
Ketobemidone                                  90.79
Tolperisone                                   89.81
Metaxalone                                    89.64
Mephenoxalone                                 89.49

    QP Breakdown (< for descriptor over training max)
                log Po/w                    -log S
 H-bond Donor        -0.300    H-bond Donor        -0.402 
 H-bond Acceptor     -2.070    H-bond Acceptor     -2.225 
 Volume               5.272    SASA                 9.298 
 Ac x Dn^.5/SASA      0.384    Ac x Dn^.5/SASA      0.866 
 FISA                -0.814    Rotor Bonds         -0.651 
 Non-con amines      -0.527    N Protonation       -1.220 
 Non-con amides       0.000    Non-con amides       0.000 
 WPSA & PISA          0.180    WPSA                 0.000 
 Constant            -0.705    Constant            -2.783 
 Total                1.421    Total                2.884


                log BB                    log PMDCK
 Hydrophilic SASA    -1.072    Hydrophilic SASA    -1.205 
 WPSA                 0.000    WPSA                 0.000 
 Rotor Bonds         -0.241                         0.000 
 N Protonation        0.399    Non-con amines      -0.608 
 FOSA                 0.000    COOH/SO3H acids      0.000 
 Constant             0.564    Constant             3.771
 Total               -0.351    Total                1.958

