 Primary Metabolites & Reactive FGs:
 > Metabolism likely: ether dealkylation
 > Metabolism likely: ether dealkylation
 > Metabolism likely: ether dealkylation
 > Metabolism likely: allylic H -> alcohol
 > Reactive FG: acceptor carbonyl or derivative

 Principal Descriptors:                             (Range 95% of Drugs)
     Solute        Molecular Weight      =   317.341  ( 130.0 / 725.0) 
     Solute        Dipole Moment (D)     =     5.570  (   1.0 /  12.5) 
     Solute        Total        SASA     =   594.500  ( 300.0 /1000.0) 
     Solute        Hydrophobic  SASA     =   351.544  (   0.0 / 750.0) 
     Solute        Hydrophilic  SASA     =    78.925  (   7.0 / 330.0) 
     Solute        Carbon Pi    SASA     =   164.031  (   0.0 / 450.0) 
     Solute        Weakly Polar SASA     =     0.000  (   0.0 / 175.0) 
     Solute        Molecular Volume (A^3)=  1035.009  ( 500.0 /2000.0) 
     Solute        vdW Polar SA (PSA)    =    73.681  (   7.0 / 200.0) 
     Solute        No. of Rotatable Bonds=     6.000  (   0.0 /  15.0) 
     Solute as Donor -    Hydrogen Bonds =     0.000  (   0.0 /   6.0) 
     Solute as Acceptor - Hydrogen Bonds =     5.250  (   2.0 /  20.0) 
     Solute Globularity   (Sphere = 1)   =     0.832  (  0.75 /  0.95) 
     Solute Ionization Potential (eV)    =     8.860  (   7.9 /  10.5) 
     Solute Electron Affinity    (eV)    =     0.803  (  -0.9 /   1.7) 
 Predictions for Properties:
   QP Polarizability (Angstroms^3)       =    32.981M (  13.0 /  70.0) 
   QP log P  for     hexadecane/gas      =     9.512M (   4.0 /  18.0) 
   QP log P  for     octanol/gas         =    13.519M (   8.0 /  35.0) 
   QP log P  for     water/gas           =     6.650M (   4.0 /  45.0) 
   QP log P  for     octanol/water       =     3.137  (  -2.0 /   6.5) 
   QP log S  for   aqueous solubility    =    -3.757  (  -6.5 /   0.5) 
   QP log S - conformation independent   =    -3.967  (  -6.5 /   0.5) 
   QP log K hsa Serum Protein Binding    =    -0.037  (  -1.5 /   1.5) 
   QP log BB for     brain/blood         =    -0.558  (  -3.0 /   1.2) 
   No. of Primary Metabolites            =         4  (   1.0 /   8.0) 
   Predicted CNS Activity (-- to ++)     =      +/-
   HERG K+ Channel Blockage: log IC50    =    -5.027  (concern below -5)
   Apparent Caco-2 Permeability (nm/sec) =      1767  (<25 poor, >500 great)
   Apparent MDCK   Permeability (nm/sec) =       915  (<25 poor, >500 great)
   QP log Kp for skin permeability       =    -1.820  (Kp in cm/hr)
   Jm, max transdermal transport rate    =     0.840  (micrograms/cm^2-hr)
   Lipinski Rule of 5 Violations         =         0  (maximum is 4)
   Jorgensen Rule of 3 Violations        =         0  (maximum is 3)
   % Human Oral Absorption in GI (+-20%) =       100  (<25% is poor)
   Qual. Model for Human Oral Absorption =      HIGH  (>80% is high)

      An M indicates MW is outside training range.


       5 of   1712 molecules most similar to BC01793.mol:
          Name                           Similarity(%)
Metochalcone                                  88.33
Pirifibrate                                   86.98
Anastrozole                                   86.63
Ibuprofen                                     86.56
Thonzylamine                                  86.19

    QP Breakdown (< for descriptor over training max)
                log Po/w                    -log S
 H-bond Donor         0.000    H-bond Donor         0.000 
 H-bond Acceptor     -2.557    H-bond Acceptor     -2.749 
 Volume               6.752    SASA                11.266 
 Ac x Dn^.5/SASA      0.000    Ac x Dn^.5/SASA      0.000 
 FISA                -0.546    Rotor Bonds         -0.977 
 Non-con amines       0.000    N Protonation        0.000 
 Non-con amides       0.000    Non-con amides       0.000 
 WPSA & PISA          0.192    WPSA                 0.000 
 Constant            -0.705    Constant            -3.783 
 Total                3.137    Total                3.757


                log BB                    log PMDCK
 Hydrophilic SASA    -0.759    Hydrophilic SASA    -0.809 
 WPSA                 0.000    WPSA                 0.000 
 Rotor Bonds         -0.362                         0.000 
 N Protonation        0.000    Non-con amines       0.000 
 FOSA                 0.000    COOH/SO3H acids      0.000 
 Constant             0.564    Constant             3.771
 Total               -0.558    Total                2.962

