 Primary Metabolites & Reactive FGs:
 > Metabolism likely: ether dealkylation
 > Metabolism likely: ether dealkylation
 > Metabolism likely: furan epoxidation

 Principal Descriptors:                             (Range 95% of Drugs)
     Solute        Molecular Weight      =   311.337  ( 130.0 / 725.0) 
     Solute        Dipole Moment (D)     =     6.065  (   1.0 /  12.5) 
     Solute        Total        SASA     =   502.041  ( 300.0 /1000.0) 
     Solute        Hydrophobic  SASA     =   268.997  (   0.0 / 750.0) 
     Solute        Hydrophilic  SASA     =    21.776  (   7.0 / 330.0) 
     Solute        Carbon Pi    SASA     =   211.268  (   0.0 / 450.0) 
     Solute        Weakly Polar SASA     =     0.000  (   0.0 / 175.0) 
     Solute        Molecular Volume (A^3)=   922.128  ( 500.0 /2000.0) 
     Solute        vdW Polar SA (PSA)    =    40.058  (   7.0 / 200.0) 
     Solute        No. of Rotatable Bonds=     2.000  (   0.0 /  15.0) 
     Solute as Donor -    Hydrogen Bonds =     0.000  (   0.0 /   6.0) 
     Solute as Acceptor - Hydrogen Bonds =     3.750  (   2.0 /  20.0) 
     Solute Globularity   (Sphere = 1)   =     0.913  (  0.75 /  0.95) 
     Solute Ionization Potential (eV)    =     8.326  (   7.9 /  10.5) 
     Solute Electron Affinity    (eV)    =     1.374  (  -0.9 /   1.7) 
 Predictions for Properties:
   QP Polarizability (Angstroms^3)       =    31.483M (  13.0 /  70.0) 
   QP log P  for     hexadecane/gas      =     8.704M (   4.0 /  18.0) 
   QP log P  for     octanol/gas         =    12.463M (   8.0 /  35.0) 
   QP log P  for     water/gas           =     5.765M (   4.0 /  45.0) 
   QP log P  for     octanol/water       =     3.620  (  -2.0 /   6.5) 
   QP log S  for   aqueous solubility    =    -3.502  (  -6.5 /   0.5) 
   QP log S - conformation independent   =    -4.899  (  -6.5 /   0.5) 
   QP log K hsa Serum Protein Binding    =     0.207  (  -1.5 /   1.5) 
   QP log BB for     brain/blood         =     0.269  (  -3.0 /   1.2) 
   No. of Primary Metabolites            =         3  (   1.0 /   8.0) 
   Predicted CNS Activity (-- to ++)     =       + 
   HERG K+ Channel Blockage: log IC50    =    -3.954  (concern below -5)
   Apparent Caco-2 Permeability (nm/sec) =      6157  (<25 poor, >500 great)
   Apparent MDCK   Permeability (nm/sec) =      3528  (<25 poor, >500 great)
   QP log Kp for skin permeability       =    -0.985  (Kp in cm/hr)
   Jm, max transdermal transport rate    =    11.665  (micrograms/cm^2-hr)
   Lipinski Rule of 5 Violations         =         0  (maximum is 4)
   Jorgensen Rule of 3 Violations        =         0  (maximum is 3)
   % Human Oral Absorption in GI (+-20%) =       100  (<25% is poor)
   Qual. Model for Human Oral Absorption =      HIGH  (>80% is high)

      An M indicates MW is outside training range.


       5 of   1712 molecules most similar to BC02106.mol:
          Name                           Similarity(%)
Ondansetron                                   93.54
Zolpidem                                      91.96
Feprazone                                     91.54
Dydrogesterone                                91.39
Proquazone                                    91.20

    QP Breakdown (< for descriptor over training max)
                log Po/w                    -log S
 H-bond Donor         0.000    H-bond Donor         0.000 
 H-bond Acceptor     -1.826    H-bond Acceptor     -1.963 
 Volume               6.016    SASA                 9.514 
 Ac x Dn^.5/SASA      0.000    Ac x Dn^.5/SASA      0.000 
 FISA                -0.151    Rotor Bonds         -0.326 
 Non-con amines       0.000    N Protonation        0.000 
 Non-con amides       0.000    Non-con amides       0.000 
 WPSA & PISA          0.247    WPSA                 0.000 
 Constant            -0.705    Constant            -3.783 
 Total                3.581    Total                3.442


                log BB                    log PMDCK
 Hydrophilic SASA    -0.174    Hydrophilic SASA    -0.223 
 WPSA                 0.000    WPSA                 0.000 
 Rotor Bonds         -0.121                         0.000 
 N Protonation        0.000    Non-con amines       0.000 
 FOSA                 0.000    COOH/SO3H acids      0.000 
 Constant             0.564    Constant             3.771
 Total                0.269    Total                3.548

