 Primary Metabolites & Reactive FGs:
 > Metabolism likely: benzylic-like H -> alcohol
 > Metabolism likely: benzylic-like H -> alcohol
 > Metabolism likely: para hydroxylation of aryl
 > Metabolism likely: para hydroxylation of aryl

 Principal Descriptors:                             (Range 95% of Drugs)
     Solute        Molecular Weight      =   406.483  ( 130.0 / 725.0) 
     Solute        Dipole Moment (D)     =     5.383  (   1.0 /  12.5) 
     Solute        Total        SASA     =   629.846  ( 300.0 /1000.0) 
     Solute        Hydrophobic  SASA     =   362.410  (   0.0 / 750.0) 
     Solute        Hydrophilic  SASA     =   113.999  (   7.0 / 330.0) 
     Solute        Carbon Pi    SASA     =   153.437  (   0.0 / 450.0) 
     Solute        Weakly Polar SASA     =     0.000  (   0.0 / 175.0) 
     Solute        Molecular Volume (A^3)=  1234.959  ( 500.0 /2000.0) 
     Solute        vdW Polar SA (PSA)    =    85.578  (   7.0 / 200.0) 
     Solute        No. of Rotatable Bonds=     0.000  (   0.0 /  15.0) 
     Solute as Donor -    Hydrogen Bonds =     0.000  (   0.0 /   6.0) 
     Solute as Acceptor - Hydrogen Bonds =     8.000  (   2.0 /  20.0) 
     Solute Globularity   (Sphere = 1)   =     0.884  (  0.75 /  0.95) 
     Solute Ionization Potential (eV)    =     9.052  (   7.9 /  10.5) 
     Solute Electron Affinity    (eV)    =     0.516  (  -0.9 /   1.7) 
 Predictions for Properties:
   QP Polarizability (Angstroms^3)       =    44.734M (  13.0 /  70.0) 
   QP log P  for     hexadecane/gas      =    11.616M (   4.0 /  18.0) 
   QP log P  for     octanol/gas         =    19.643M (   8.0 /  35.0) 
   QP log P  for     water/gas           =    12.911M (   4.0 /  45.0) 
   QP log P  for     octanol/water       =     2.221  (  -2.0 /   6.5) 
   QP log S  for   aqueous solubility    =    -3.080  (  -6.5 /   0.5) 
   QP log S - conformation independent   =    -4.135  (  -6.5 /   0.5) 
   QP log K hsa Serum Protein Binding    =    -0.259  (  -1.5 /   1.5) 
   QP log BB for     brain/blood         =    -0.409  (  -3.0 /   1.2) 
   No. of Primary Metabolites            =         4  (   1.0 /   8.0) 
   Predicted CNS Activity (-- to ++)     =       - 
   HERG K+ Channel Blockage: log IC50    =    -2.769  (concern below -5)
   Apparent Caco-2 Permeability (nm/sec) =       503  (<25 poor, >500 great)
   Apparent MDCK   Permeability (nm/sec) =       400  (<25 poor, >500 great)
   QP log Kp for skin permeability       =    -3.080  (Kp in cm/hr)
   Jm, max transdermal transport rate    =     0.281  (micrograms/cm^2-hr)
   Lipinski Rule of 5 Violations         =         0  (maximum is 4)
   Jorgensen Rule of 3 Violations        =         0  (maximum is 3)
   % Human Oral Absorption in GI (+-20%) =        88  (<25% is poor)
   Qual. Model for Human Oral Absorption =      HIGH  (>80% is high)

      An M indicates MW is outside training range.


       5 of   1712 molecules most similar to BC02208.mol:
          Name                           Similarity(%)
Tadalafil                                     85.02
Risperidone                                   78.73
Ketazolam                                     76.56
Vesnarinone                                   75.81
Eplerenone                                    73.61

    QP Breakdown (< for descriptor over training max)
                log Po/w                    -log S
 H-bond Donor         0.000    H-bond Donor         0.000 
 H-bond Acceptor     -3.896    H-bond Acceptor     -4.189 
 Volume               8.057    SASA                11.936 
 Ac x Dn^.5/SASA      0.000    Ac x Dn^.5/SASA      0.000 
 FISA                -0.789    Rotor Bonds          0.000 
 Non-con amines       0.000    N Protonation        0.000 
 Non-con amides      -0.626    Non-con amides      -0.884 
 WPSA & PISA          0.180    WPSA                 0.000 
 Constant            -0.705    Constant            -3.783 
 Total                2.221    Total                3.080


                log BB                    log PMDCK
 Hydrophilic SASA    -0.973    Hydrophilic SASA    -1.168 
 WPSA                 0.000    WPSA                 0.000 
 Rotor Bonds          0.000                         0.000 
 N Protonation        0.000    Non-con amines       0.000 
 FOSA                 0.000    COOH/SO3H acids      0.000 
 Constant             0.564    Constant             3.771
 Total               -0.409    Total                2.602

