 Primary Metabolites & Reactive FGs:
 > Metabolism likely: tertiary alcohol E1 or SN1
 > Metabolism likely: ether dealkylation
 > Metabolism likely: allylic H -> alcohol

 Principal Descriptors:                             (Range 95% of Drugs)
     Solute        Molecular Weight      =   384.474  ( 130.0 / 725.0) 
     Solute        Dipole Moment (D)     =     2.923  (   1.0 /  12.5) 
     Solute        Total        SASA     =   617.104  ( 300.0 /1000.0) 
     Solute        Hydrophobic  SASA     =   405.261  (   0.0 / 750.0) 
     Solute        Hydrophilic  SASA     =    72.871  (   7.0 / 330.0) 
     Solute        Carbon Pi    SASA     =   138.972  (   0.0 / 450.0) 
     Solute        Weakly Polar SASA     =     0.000  (   0.0 / 175.0) 
     Solute        Molecular Volume (A^3)=  1155.001  ( 500.0 /2000.0) 
     Solute        vdW Polar SA (PSA)    =    72.174  (   7.0 / 200.0) 
     Solute        No. of Rotatable Bonds=     4.000  (   0.0 /  15.0) 
     Solute as Donor -    Hydrogen Bonds =     1.000  (   0.0 /   6.0) 
     Solute as Acceptor - Hydrogen Bonds =     5.500  (   2.0 /  20.0) 
     Solute Globularity   (Sphere = 1)   =     0.863  (  0.75 /  0.95) 
     Solute Ionization Potential (eV)    =     8.408  (   7.9 /  10.5) 
     Solute Electron Affinity    (eV)    =    -0.176  (  -0.9 /   1.7) 
 Predictions for Properties:
   QP Polarizability (Angstroms^3)       =    38.828M (  13.0 /  70.0) 
   QP log P  for     hexadecane/gas      =    10.703M (   4.0 /  18.0) 
   QP log P  for     octanol/gas         =    16.988M (   8.0 /  35.0) 
   QP log P  for     water/gas           =     8.645M (   4.0 /  45.0) 
   QP log P  for     octanol/water       =     2.852  (  -2.0 /   6.5) 
   QP log S  for   aqueous solubility    =    -2.431  (  -6.5 /   0.5) 
   QP log S - conformation independent   =    -3.291  (  -6.5 /   0.5) 
   QP log K hsa Serum Protein Binding    =     0.532  (  -1.5 /   1.5) 
   QP log BB for     brain/blood         =     0.467  (  -3.0 /   1.2) 
   No. of Primary Metabolites            =         3  (   1.0 /   8.0) 
   Predicted CNS Activity (-- to ++)     =      ++ 
   HERG K+ Channel Blockage: log IC50    =    -5.869  (concern below -5)
   Apparent Caco-2 Permeability (nm/sec) =       125  (<25 poor, >500 great)
   Apparent MDCK   Permeability (nm/sec) =        64  (<25 poor, >500 great)
   QP log Kp for skin permeability       =    -6.114  (Kp in cm/hr)
   Jm, max transdermal transport rate    =     0.001  (micrograms/cm^2-hr)
   Lipinski Rule of 5 Violations         =         0  (maximum is 4)
   Jorgensen Rule of 3 Violations        =         0  (maximum is 3)
   % Human Oral Absorption in GI (+-20%) =        81  (<25% is poor)
   Qual. Model for Human Oral Absorption =      HIGH  (>80% is high)

      An M indicates MW is outside training range.


       5 of   1712 molecules most similar to BC00239.mol:
          Name                           Similarity(%)
Brovincamine                                  88.40
Eletriptan                                    83.92
Mazaticol                                     83.70
Benperidol                                    82.93
Ketanserin                                    82.32

    QP Breakdown (< for descriptor over training max)
                log Po/w                    -log S
 H-bond Donor        -0.300    H-bond Donor        -0.402 
 H-bond Acceptor     -2.679    H-bond Acceptor     -2.880 
 Volume               7.535    SASA                11.694 
 Ac x Dn^.5/SASA      0.395    Ac x Dn^.5/SASA      0.891 
 FISA                -0.504    Rotor Bonds         -0.651 
 Non-con amines      -1.054    N Protonation       -2.439 
 Non-con amides       0.000    Non-con amides       0.000 
 WPSA & PISA          0.163    WPSA                 0.000 
 Constant            -0.705    Constant            -3.783 
 Total                2.852    Total                2.431


                log BB                    log PMDCK
 Hydrophilic SASA    -0.653    Hydrophilic SASA    -0.747 
 WPSA                 0.000    WPSA                 0.000 
 Rotor Bonds         -0.241                         0.000 
 N Protonation        0.797    Non-con amines      -1.216 
 FOSA                 0.000    COOH/SO3H acids      0.000 
 Constant             0.564    Constant             3.771
 Total                0.467    Total                1.808

