 Primary Metabolites & Reactive FGs:
 > Metabolism likely: secondary alcohol -> ketone
 > Metabolism likely: ether dealkylation
 > Metabolism likely: benzylic-like H -> alcohol

 Principal Descriptors:                             (Range 95% of Drugs)
     Solute        Molecular Weight      =   273.331  ( 130.0 / 725.0) 
     Solute        Dipole Moment (D)     =     4.987  (   1.0 /  12.5) 
     Solute        Total        SASA     =   478.571  ( 300.0 /1000.0) 
     Solute        Hydrophobic  SASA     =   272.127  (   0.0 / 750.0) 
     Solute        Hydrophilic  SASA     =    63.639  (   7.0 / 330.0) 
     Solute        Carbon Pi    SASA     =   142.805  (   0.0 / 450.0) 
     Solute        Weakly Polar SASA     =     0.000  (   0.0 / 175.0) 
     Solute        Molecular Volume (A^3)=   850.461  ( 500.0 /2000.0) 
     Solute        vdW Polar SA (PSA)    =    50.278  (   7.0 / 200.0) 
     Solute        No. of Rotatable Bonds=     2.000  (   0.0 /  15.0) 
     Solute as Donor -    Hydrogen Bonds =     2.000  (   0.0 /   6.0) 
     Solute as Acceptor - Hydrogen Bonds =     4.700  (   2.0 /  20.0) 
     Solute Globularity   (Sphere = 1)   =     0.907  (  0.75 /  0.95) 
     Solute Ionization Potential (eV)    =     8.492  (   7.9 /  10.5) 
     Solute Electron Affinity    (eV)    =    -0.326  (  -0.9 /   1.7) 
 Predictions for Properties:
   QP Polarizability (Angstroms^3)       =    27.961M (  13.0 /  70.0) 
   QP log P  for     hexadecane/gas      =     8.264M (   4.0 /  18.0) 
   QP log P  for     octanol/gas         =    14.563M (   8.0 /  35.0) 
   QP log P  for     water/gas           =     9.393M (   4.0 /  45.0) 
   QP log P  for     octanol/water       =     1.771  (  -2.0 /   6.5) 
   QP log S  for   aqueous solubility    =    -1.865  (  -6.5 /   0.5) 
   QP log S - conformation independent   =    -2.160  (  -6.5 /   0.5) 
   QP log K hsa Serum Protein Binding    =    -0.022  (  -1.5 /   1.5) 
   QP log BB for     brain/blood         =     0.326  (  -3.0 /   1.2) 
   No. of Primary Metabolites            =         3  (   1.0 /   8.0) 
   Predicted CNS Activity (-- to ++)     =       + 
   HERG K+ Channel Blockage: log IC50    =    -4.442  (concern below -5)
   Apparent Caco-2 Permeability (nm/sec) =       615  (<25 poor, >500 great)
   Apparent MDCK   Permeability (nm/sec) =       323  (<25 poor, >500 great)
   QP log Kp for skin permeability       =    -4.060  (Kp in cm/hr)
   Jm, max transdermal transport rate    =     0.325  (micrograms/cm^2-hr)
   Lipinski Rule of 5 Violations         =         0  (maximum is 4)
   Jorgensen Rule of 3 Violations        =         0  (maximum is 3)
   % Human Oral Absorption in GI (+-20%) =        87  (<25% is poor)
   Qual. Model for Human Oral Absorption =      HIGH  (>80% is high)

      An M indicates MW is outside training range.


       5 of   1712 molecules most similar to BC02456.mol:
          Name                           Similarity(%)
Fenspiride                                    86.50
Molindone                                     85.89
Ketobemidone                                  84.56
Zolmitriptan                                  84.36
Oxazepam                                      84.32

    QP Breakdown (< for descriptor over training max)
                log Po/w                    -log S
 H-bond Donor        -0.600    H-bond Donor        -0.803 
 H-bond Acceptor     -2.289    H-bond Acceptor     -2.461 
 Volume               5.548    SASA                 9.069 
 Ac x Dn^.5/SASA      0.616    Ac x Dn^.5/SASA      1.388 
 FISA                -0.440    Rotor Bonds         -0.326 
 Non-con amines      -0.527    N Protonation       -1.220 
 Non-con amides       0.000    Non-con amides       0.000 
 WPSA & PISA          0.167    WPSA                 0.000 
 Constant            -0.705    Constant            -3.783 
 Total                1.771    Total                1.865


                log BB                    log PMDCK
 Hydrophilic SASA    -0.516    Hydrophilic SASA    -0.652 
 WPSA                 0.000    WPSA                 0.000 
 Rotor Bonds         -0.121                         0.000 
 N Protonation        0.399    Non-con amines      -0.608 
 FOSA                 0.000    COOH/SO3H acids      0.000 
 Constant             0.564    Constant             3.771
 Total                0.326    Total                2.510

