 Primary Metabolites & Reactive FGs:
 > Metabolism likely: ether dealkylation
 > Metabolism likely: ether dealkylation
 > Metabolism likely: ether dealkylation
 > Metabolism likely: ether dealkylation

 Principal Descriptors:                             (Range 95% of Drugs)
     Solute        Molecular Weight      =   342.348  ( 130.0 / 725.0) 
     Solute        Dipole Moment (D)     =     8.512  (   1.0 /  12.5) 
     Solute        Total        SASA     =   595.778  ( 300.0 /1000.0) 
     Solute        Hydrophobic  SASA     =   328.907  (   0.0 / 750.0) 
     Solute        Hydrophilic  SASA     =    46.291  (   7.0 / 330.0) 
     Solute        Carbon Pi    SASA     =   220.580  (   0.0 / 450.0) 
     Solute        Weakly Polar SASA     =     0.000  (   0.0 / 175.0) 
     Solute        Molecular Volume (A^3)=  1054.993  ( 500.0 /2000.0) 
     Solute        vdW Polar SA (PSA)    =    61.554  (   7.0 / 200.0) 
     Solute        No. of Rotatable Bonds=     4.000  (   0.0 /  15.0) 
     Solute as Donor -    Hydrogen Bonds =     0.000  (   0.0 /   6.0) 
     Solute as Acceptor - Hydrogen Bonds =     5.500  (   2.0 /  20.0) 
     Solute Globularity   (Sphere = 1)   =     0.841  (  0.75 /  0.95) 
     Solute Ionization Potential (eV)    =     8.918  (   7.9 /  10.5) 
     Solute Electron Affinity    (eV)    =     0.776  (  -0.9 /   1.7) 
 Predictions for Properties:
   QP Polarizability (Angstroms^3)       =    35.605M (  13.0 /  70.0) 
   QP log P  for     hexadecane/gas      =     9.891M (   4.0 /  18.0) 
   QP log P  for     octanol/gas         =    15.136M (   8.0 /  35.0) 
   QP log P  for     water/gas           =     7.503M (   4.0 /  45.0) 
   QP log P  for     octanol/water       =     3.437  (  -2.0 /   6.5) 
   QP log S  for   aqueous solubility    =    -3.976  (  -6.5 /   0.5) 
   QP log S - conformation independent   =    -4.751  (  -6.5 /   0.5) 
   QP log K hsa Serum Protein Binding    =     0.040  (  -1.5 /   1.5) 
   QP log BB for     brain/blood         =    -0.114  (  -3.0 /   1.2) 
   No. of Primary Metabolites            =         4  (   1.0 /   8.0) 
   Predicted CNS Activity (-- to ++)     =      +/-
   HERG K+ Channel Blockage: log IC50    =    -5.153  (concern below -5)
   Apparent Caco-2 Permeability (nm/sec) =      3605  (<25 poor, >500 great)
   Apparent MDCK   Permeability (nm/sec) =      1978  (<25 poor, >500 great)
   QP log Kp for skin permeability       =    -1.212  (Kp in cm/hr)
   Jm, max transdermal transport rate    =     2.222  (micrograms/cm^2-hr)
   Lipinski Rule of 5 Violations         =         0  (maximum is 4)
   Jorgensen Rule of 3 Violations        =         0  (maximum is 3)
   % Human Oral Absorption in GI (+-20%) =       100  (<25% is poor)
   Qual. Model for Human Oral Absorption =      HIGH  (>80% is high)

      An M indicates MW is outside training range.


       5 of   1712 molecules most similar to BC02521.mol:
          Name                           Similarity(%)
Dimefline                                     92.82
Etoricoxib                                    92.21
Efloxate                                      91.89
Mofezolac                                     90.34
Indomethacin                                  89.98

    QP Breakdown (< for descriptor over training max)
                log Po/w                    -log S
 H-bond Donor         0.000    H-bond Donor         0.000 
 H-bond Acceptor     -2.679    H-bond Acceptor     -2.880 
 Volume               6.883    SASA                11.290 
 Ac x Dn^.5/SASA      0.000    Ac x Dn^.5/SASA      0.000 
 FISA                -0.320    Rotor Bonds         -0.651 
 Non-con amines       0.000    N Protonation        0.000 
 Non-con amides       0.000    Non-con amides       0.000 
 WPSA & PISA          0.258    WPSA                 0.000 
 Constant            -0.705    Constant            -3.783 
 Total                3.437    Total                3.976


                log BB                    log PMDCK
 Hydrophilic SASA    -0.436    Hydrophilic SASA    -0.474 
 WPSA                 0.000    WPSA                 0.000 
 Rotor Bonds         -0.241                         0.000 
 N Protonation        0.000    Non-con amines       0.000 
 FOSA                 0.000    COOH/SO3H acids      0.000 
 Constant             0.564    Constant             3.771
 Total               -0.114    Total                3.296

