 Primary Metabolites & Reactive FGs:
 > Reactive FG: unhindered ester
 > Metabolism likely: alpha hydroxylation of cyclic ether
 > Metabolism likely: secondary alcohol -> ketone
 > Metabolism likely: secondary alcohol -> ketone
 > Metabolism likely: secondary alcohol -> ketone
 > Metabolism likely: primary alcohol -> acid
 > Metabolism likely: alpha, beta dehydrogenation at carbonyl

 Principal Descriptors:                             (Range 95% of Drugs)
     Solute        Molecular Weight      =   463.575  ( 130.0 / 725.0) 
     Solute        Dipole Moment (D)     =     5.489  (   1.0 /  12.5) 
     Solute        Total        SASA     =   738.526  ( 300.0 /1000.0) 
     Solute        Hydrophobic  SASA     =   353.380  (   0.0 / 750.0) 
     Solute        Hydrophilic  SASA     =   307.336  (   7.0 / 330.0) 
     Solute        Carbon Pi    SASA     =     0.000  (   0.0 / 450.0) 
     Solute        Weakly Polar SASA     =    77.811  (   0.0 / 175.0) 
     Solute        Molecular Volume (A^3)=  1337.238  ( 500.0 /2000.0) 
     Solute        vdW Polar SA (PSA)    =   187.127  (   7.0 / 200.0) 
     Solute        No. of Rotatable Bonds=    19.000  (   0.0 /  15.0)*
     Solute as Donor -    Hydrogen Bonds =     5.000  (   0.0 /   6.0) 
     Solute as Acceptor - Hydrogen Bonds =    14.500  (   2.0 /  20.0) 
     Solute Globularity   (Sphere = 1)   =     0.795  (  0.75 /  0.95) 
     Solute Ionization Potential (eV)    =     9.044  (   7.9 /  10.5) 
     Solute Electron Affinity    (eV)    =     1.107  (  -0.9 /   1.7) 
 Predictions for Properties:
   QP Polarizability (Angstroms^3)       =    35.162M (  13.0 /  70.0) 
   QP log P  for     hexadecane/gas      =    14.556M (   4.0 /  18.0) 
   QP log P  for     octanol/gas         =    27.200M (   8.0 /  35.0) 
   QP log P  for     water/gas           =    21.028M (   4.0 /  45.0) 
   QP log P  for     octanol/water       =     0.091  (  -2.0 /   6.5) 
   QP log S  for   aqueous solubility    =    -2.247  (  -6.5 /   0.5) 
   QP log S - conformation independent   =    -2.914  (  -6.5 /   0.5) 
   QP log K hsa Serum Protein Binding    =    -1.366  (  -1.5 /   1.5) 
   QP log BB for     brain/blood         =    -3.634  (  -3.0 /   1.2)*
   No. of Primary Metabolites            =         6  (   1.0 /   8.0) 
   Predicted CNS Activity (-- to ++)     =      -- 
   HERG K+ Channel Blockage: log IC50    =    -3.044  (concern below -5)
   Apparent Caco-2 Permeability (nm/sec) =         3  (<25 poor, >500 great)
   Apparent MDCK   Permeability (nm/sec) =         3M (<25 poor, >500 great)
   QP log Kp for skin permeability       =    -5.360  (Kp in cm/hr)
   Jm, max transdermal transport rate    =     0.011  (micrograms/cm^2-hr)
   Lipinski Rule of 5 Violations         =         0  (maximum is 4)
   Jorgensen Rule of 3 Violations        =         1  (maximum is 3)
   % Human Oral Absorption in GI (+-20%) =        36  (<25% is poor)
   Qual. Model for Human Oral Absorption =       low  (>80% is high)

       A * indicates a violation of the 95% range. # stars =  2
      An M indicates MW is outside training range.


       5 of   1712 molecules most similar to BC02699.mol:
          Name                           Similarity(%)
Sulfoxone                                     64.50
Thiamine                                      63.77
Octotiamine                                   62.59
Mopidamol                                     62.22
Clindamycin                                   61.66

    QP Breakdown (< for descriptor over training max)
                log Po/w                    -log S
 H-bond Donor        -1.500    H-bond Donor        -2.008 
 H-bond Acceptor     -7.061    H-bond Acceptor     -7.592 
 Volume               8.724    SASA                13.995 
 Ac x Dn^.5/SASA      1.948    Ac x Dn^.5/SASA      4.388 
 FISA                -1.611    Rotor Bonds         -3.093<
 Non-con amines       0.000    N Protonation        0.000 
 Non-con amides       0.000    Non-con amides       0.000 
 WPSA & PISA          0.297    WPSA                 0.339 
 Constant            -0.705    Constant            -3.783 
 Total                0.091    Total                2.247


                log BB                    log PMDCK
 Hydrophilic SASA    -3.243<   Hydrophilic SASA    -3.150 
 WPSA                 0.191    WPSA                 0.426 
 Rotor Bonds         -1.145<                        0.000 
 N Protonation        0.000    Non-con amines       0.000 
 FOSA                 0.000    COOH/SO3H acids     -0.540 
 Constant             0.564    Constant             3.771
 Total               -3.634    Total                0.507

