 Primary Metabolites & Reactive FGs:
 > Metabolism likely: ether dealkylation
 > Metabolism likely: aromatic OH oxidation
 > Metabolism likely: amine dealkylation
 > Metabolism likely: benzylic-like H -> alcohol
 > Metabolism likely: alpha, beta dehydrogenation at carbonyl
 > Metabolism likely: benzylic-like H -> alcohol

 Principal Descriptors:                             (Range 95% of Drugs)
     Solute        Molecular Weight      =   360.366  ( 130.0 / 725.0) 
     Solute        Dipole Moment (D)     =     8.842  (   1.0 /  12.5) 
     Solute        Total        SASA     =   675.895  ( 300.0 /1000.0) 
     Solute        Hydrophobic  SASA     =   229.977  (   0.0 / 750.0) 
     Solute        Hydrophilic  SASA     =   272.659  (   7.0 / 330.0) 
     Solute        Carbon Pi    SASA     =   173.258  (   0.0 / 450.0) 
     Solute        Weakly Polar SASA     =     0.000  (   0.0 / 175.0) 
     Solute        Molecular Volume (A^3)=  1154.966  ( 500.0 /2000.0) 
     Solute        vdW Polar SA (PSA)    =   150.802  (   7.0 / 200.0) 
     Solute        No. of Rotatable Bonds=     9.000  (   0.0 /  15.0) 
     Solute as Donor -    Hydrogen Bonds =     4.000  (   0.0 /   6.0) 
     Solute as Acceptor - Hydrogen Bonds =     8.000  (   2.0 /  20.0) 
     Solute Globularity   (Sphere = 1)   =     0.788  (  0.75 /  0.95) 
     Solute Ionization Potential (eV)    =     8.205  (   7.9 /  10.5) 
     Solute Electron Affinity    (eV)    =     0.602  (  -0.9 /   1.7) 
 Predictions for Properties:
   QP Polarizability (Angstroms^3)       =    35.943M (  13.0 /  70.0) 
   QP log P  for     hexadecane/gas      =    13.022M (   4.0 /  18.0) 
   QP log P  for     octanol/gas         =    23.105M (   8.0 /  35.0) 
   QP log P  for     water/gas           =    16.132M (   4.0 /  45.0) 
   QP log P  for     octanol/water       =     2.132  (  -2.0 /   6.5) 
   QP log S  for   aqueous solubility    =    -4.131  (  -6.5 /   0.5) 
   QP log S - conformation independent   =    -3.870  (  -6.5 /   0.5) 
   QP log K hsa Serum Protein Binding    =    -0.586  (  -1.5 /   1.5) 
   QP log BB for     brain/blood         =    -2.909  (  -3.0 /   1.2) 
   No. of Primary Metabolites            =         6  (   1.0 /   8.0) 
   Predicted CNS Activity (-- to ++)     =      -- 
   HERG K+ Channel Blockage: log IC50    =    -2.179  (concern below -5)
   Apparent Caco-2 Permeability (nm/sec) =         1  (<25 poor, >500 great)
   Apparent MDCK   Permeability (nm/sec) =         0  (<25 poor, >500 great)
   QP log Kp for skin permeability       =    -5.070  (Kp in cm/hr)
   Jm, max transdermal transport rate    =     0.000  (micrograms/cm^2-hr)
   Lipinski Rule of 5 Violations         =         0  (maximum is 4)
   Jorgensen Rule of 3 Violations        =         1  (maximum is 3)
   % Human Oral Absorption in GI (+-20%) =        43  (<25% is poor)
   Qual. Model for Human Oral Absorption =       low  (>80% is high)

      An M indicates MW is outside training range.


       5 of   1712 molecules most similar to BC02742.mol:
          Name                           Similarity(%)
Bumetanide                                    88.83
Tetroxoprim                                   85.59
Formoterol                                    84.31
Balsalazide                                   83.32
Febarbamate                                   81.45

    QP Breakdown (< for descriptor over training max)
                log Po/w                    -log S
 H-bond Donor        -1.200    H-bond Donor        -1.606 
 H-bond Acceptor     -3.896    H-bond Acceptor     -4.189 
 Volume               7.535    SASA                12.808 
 Ac x Dn^.5/SASA      1.050    Ac x Dn^.5/SASA      2.366 
 FISA                -0.856    Rotor Bonds         -1.465 
 Non-con amines       0.000    N Protonation        0.000 
 Non-con amides       0.000    Non-con amides       0.000 
 WPSA & PISA          0.203    WPSA                 0.000 
 Constant            -0.705    Constant            -3.783 
 Total                2.132    Total                4.131


                log BB                    log PMDCK
 Hydrophilic SASA    -2.930<   Hydrophilic SASA    -2.795 
 WPSA                 0.000    WPSA                 0.000 
 Rotor Bonds         -0.542                         0.000 
 N Protonation        0.000    Non-con amines       0.000 
 FOSA                 0.000    COOH/SO3H acids     -1.080 
 Constant             0.564    Constant             3.771
 Total               -2.909    Total               -0.104

BC02743.mol                             
 Has an odd number of electrons or is charged 181 - molecule not processed
