 Primary Metabolites & Reactive FGs:
 > Metabolism likely: allylic H -> alcohol
 > Metabolism likely: allylic H -> alcohol
 > Metabolism likely: allylic H -> alcohol
 > Metabolism likely: allylic H -> alcohol
 > Metabolism likely: allylic H -> alcohol
 > Metabolism likely: allylic H -> alcohol
 > Metabolism likely: allylic H -> alcohol
 > Reactive FG: acceptor carbonyl or derivative

 Principal Descriptors:                             (Range 95% of Drugs)
     Solute        Molecular Weight      =   218.338  ( 130.0 / 725.0) 
     Solute        Dipole Moment (D)     =     3.807  (   1.0 /  12.5) 
     Solute        Total        SASA     =   473.695  ( 300.0 /1000.0) 
     Solute        Hydrophobic  SASA     =   354.094  (   0.0 / 750.0) 
     Solute        Hydrophilic  SASA     =    70.900  (   7.0 / 330.0) 
     Solute        Carbon Pi    SASA     =    48.701  (   0.0 / 450.0) 
     Solute        Weakly Polar SASA     =     0.000  (   0.0 / 175.0) 
     Solute        Molecular Volume (A^3)=   833.658  ( 500.0 /2000.0) 
     Solute        vdW Polar SA (PSA)    =    36.789  (   7.0 / 200.0) 
     Solute        No. of Rotatable Bonds=     2.000  (   0.0 /  15.0) 
     Solute as Donor -    Hydrogen Bonds =     0.000  (   0.0 /   6.0) 
     Solute as Acceptor - Hydrogen Bonds =     2.000  (   2.0 /  20.0) 
     Solute Globularity   (Sphere = 1)   =     0.904  (  0.75 /  0.95) 
     Solute Ionization Potential (eV)    =     9.476  (   7.9 /  10.5) 
     Solute Electron Affinity    (eV)    =     0.222  (  -0.9 /   1.7) 
 Predictions for Properties:
   QP Polarizability (Angstroms^3)       =    26.390M (  13.0 /  70.0) 
   QP log P  for     hexadecane/gas      =     7.018M (   4.0 /  18.0) 
   QP log P  for     octanol/gas         =     9.356  (   8.0 /  35.0) 
   QP log P  for     water/gas           =     3.201  (   4.0 /  45.0)*
   QP log P  for     octanol/water       =     3.326  (  -2.0 /   6.5) 
   QP log S  for   aqueous solubility    =    -3.821  (  -6.5 /   0.5) 
   QP log S - conformation independent   =    -2.393  (  -6.5 /   0.5) 
   QP log K hsa Serum Protein Binding    =     0.418  (  -1.5 /   1.5) 
   QP log BB for     brain/blood         =    -0.135  (  -3.0 /   1.2) 
   No. of Primary Metabolites            =         7  (   1.0 /   8.0) 
   Predicted CNS Activity (-- to ++)     =      +/-
   HERG K+ Channel Blockage: log IC50    =    -3.312  (concern below -5)
   Apparent Caco-2 Permeability (nm/sec) =      2106  (<25 poor, >500 great)
   Apparent MDCK   Permeability (nm/sec) =      1106  (<25 poor, >500 great)
   QP log Kp for skin permeability       =    -2.463  (Kp in cm/hr)
   Jm, max transdermal transport rate    =     0.114  (micrograms/cm^2-hr)
   Lipinski Rule of 5 Violations         =         0  (maximum is 4)
   Jorgensen Rule of 3 Violations        =         1  (maximum is 3)
   % Human Oral Absorption in GI (+-20%) =       100  (<25% is poor)
   Qual. Model for Human Oral Absorption =      HIGH  (>80% is high)

       A * indicates a violation of the 95% range. # stars =  1
      An M indicates MW is outside training range.


       5 of   1712 molecules most similar to BC02773.mol:
          Name                           Similarity(%)
Cicloxilic                                    81.95
Methylphenidate                               81.23
Nabumetone                                    80.32
Anethole                                      80.27
Fencamfamin                                   80.25

    QP Breakdown (< for descriptor over training max)
                log Po/w                    -log S
 H-bond Donor         0.000    H-bond Donor         0.000 
 H-bond Acceptor     -0.974    H-bond Acceptor     -1.047 
 Volume               5.439    SASA                 8.977 
 Ac x Dn^.5/SASA      0.000    Ac x Dn^.5/SASA      0.000 
 FISA                -0.491    Rotor Bonds         -0.326 
 Non-con amines       0.000    N Protonation        0.000 
 Non-con amides       0.000    Non-con amides       0.000 
 WPSA & PISA          0.057    WPSA                 0.000 
 Constant            -0.705    Constant            -3.783 
 Total                3.326    Total                3.821


                log BB                    log PMDCK
 Hydrophilic SASA    -0.578    Hydrophilic SASA    -0.727 
 WPSA                 0.000    WPSA                 0.000 
 Rotor Bonds         -0.121                         0.000 
 N Protonation        0.000    Non-con amines       0.000 
 FOSA                 0.000    COOH/SO3H acids      0.000 
 Constant             0.564    Constant             3.771
 Total               -0.135    Total                3.044

