 Primary Metabolites & Reactive FGs:
 > Metabolism likely: secondary alcohol -> ketone
 > Metabolism likely: primary alcohol -> acid
 > Metabolism likely: secondary alcohol -> ketone
 > Metabolism likely: allylic H -> alcohol
 > Metabolism likely: allylic H -> alcohol
 > Metabolism likely: allylic H -> alcohol

 Principal Descriptors:                             (Range 95% of Drugs)
     Solute        Molecular Weight      =   350.454  ( 130.0 / 725.0) 
     Solute        Dipole Moment (D)     =     7.245  (   1.0 /  12.5) 
     Solute        Total        SASA     =   610.325  ( 300.0 /1000.0) 
     Solute        Hydrophobic  SASA     =   416.048  (   0.0 / 750.0) 
     Solute        Hydrophilic  SASA     =   168.093  (   7.0 / 330.0) 
     Solute        Carbon Pi    SASA     =    26.184  (   0.0 / 450.0) 
     Solute        Weakly Polar SASA     =     0.000  (   0.0 / 175.0) 
     Solute        Molecular Volume (A^3)=  1136.192  ( 500.0 /2000.0) 
     Solute        vdW Polar SA (PSA)    =    99.720  (   7.0 / 200.0) 
     Solute        No. of Rotatable Bonds=     7.000  (   0.0 /  15.0) 
     Solute as Donor -    Hydrogen Bonds =     3.000  (   0.0 /   6.0) 
     Solute as Acceptor - Hydrogen Bonds =     8.100  (   2.0 /  20.0) 
     Solute Globularity   (Sphere = 1)   =     0.863  (  0.75 /  0.95) 
     Solute Ionization Potential (eV)    =     9.863  (   7.9 /  10.5) 
     Solute Electron Affinity    (eV)    =     0.284  (  -0.9 /   1.7) 
 Predictions for Properties:
   QP Polarizability (Angstroms^3)       =    35.072M (  13.0 /  70.0) 
   QP log P  for     hexadecane/gas      =    10.863M (   4.0 /  18.0) 
   QP log P  for     octanol/gas         =    20.699M (   8.0 /  35.0) 
   QP log P  for     water/gas           =    13.338M (   4.0 /  45.0) 
   QP log P  for     octanol/water       =     1.750  (  -2.0 /   6.5) 
   QP log S  for   aqueous solubility    =    -3.495  (  -6.5 /   0.5) 
   QP log S - conformation independent   =    -3.309  (  -6.5 /   0.5) 
   QP log K hsa Serum Protein Binding    =    -0.105  (  -1.5 /   1.5) 
   QP log BB for     brain/blood         =    -1.364  (  -3.0 /   1.2) 
   No. of Primary Metabolites            =         6  (   1.0 /   8.0) 
   Predicted CNS Activity (-- to ++)     =      -- 
   HERG K+ Channel Blockage: log IC50    =    -3.877  (concern below -5)
   Apparent Caco-2 Permeability (nm/sec) =       252  (<25 poor, >500 great)
   Apparent MDCK   Permeability (nm/sec) =       111  (<25 poor, >500 great)
   QP log Kp for skin permeability       =    -3.853  (Kp in cm/hr)
   Jm, max transdermal transport rate    =     0.016  (micrograms/cm^2-hr)
   Lipinski Rule of 5 Violations         =         0  (maximum is 4)
   Jorgensen Rule of 3 Violations        =         0  (maximum is 3)
   % Human Oral Absorption in GI (+-20%) =        80  (<25% is poor)
   Qual. Model for Human Oral Absorption =      HIGH  (>80% is high)

      An M indicates MW is outside training range.


       5 of   1712 molecules most similar to BC02844.mol:
          Name                           Similarity(%)
Prednylidene                                  88.23
Cloprednol                                    86.51
Phentetramine                                 85.63
Prednisolone                                  85.60
Cafedrine                                     85.18

    QP Breakdown (< for descriptor over training max)
                log Po/w                    -log S
 H-bond Donor        -0.900    H-bond Donor        -1.205 
 H-bond Acceptor     -3.945    H-bond Acceptor     -4.241 
 Volume               7.413    SASA                11.566 
 Ac x Dn^.5/SASA      1.020    Ac x Dn^.5/SASA      2.298 
 FISA                -1.163    Rotor Bonds         -1.140 
 Non-con amines       0.000    N Protonation        0.000 
 Non-con amides       0.000    Non-con amides       0.000 
 WPSA & PISA          0.031    WPSA                 0.000 
 Constant            -0.705    Constant            -3.783 
 Total                1.750    Total                3.495


                log BB                    log PMDCK
 Hydrophilic SASA    -1.505    Hydrophilic SASA    -1.723 
 WPSA                 0.000    WPSA                 0.000 
 Rotor Bonds         -0.422                         0.000 
 N Protonation        0.000    Non-con amines       0.000 
 FOSA                 0.000    COOH/SO3H acids      0.000 
 Constant             0.564    Constant             3.771
 Total               -1.364    Total                2.048

