 Primary Metabolites & Reactive FGs:
 > Reactive FG: unhindered ester
 > Metabolism likely: alpha hydroxylation of cyclic ether
 > Metabolism likely: secondary alcohol -> ketone
 > Metabolism likely: secondary alcohol -> ketone
 > Metabolism likely: secondary alcohol -> ketone
 > Metabolism likely: primary alcohol -> acid
 > Metabolism likely: benzylic-like H -> alcohol

 Principal Descriptors:                             (Range 95% of Drugs)
     Solute        Molecular Weight      =   448.462  ( 130.0 / 725.0) 
     Solute        Dipole Moment (D)     =     7.523  (   1.0 /  12.5) 
     Solute        Total        SASA     =   680.605  ( 300.0 /1000.0) 
     Solute        Hydrophobic  SASA     =   117.488  (   0.0 / 750.0) 
     Solute        Hydrophilic  SASA     =   344.743  (   7.0 / 330.0)*
     Solute        Carbon Pi    SASA     =   198.254  (   0.0 / 450.0) 
     Solute        Weakly Polar SASA     =    20.120  (   0.0 / 175.0) 
     Solute        Molecular Volume (A^3)=  1219.140  ( 500.0 /2000.0) 
     Solute        vdW Polar SA (PSA)    =   201.610  (   7.0 / 200.0)*
     Solute        No. of Rotatable Bonds=    13.000  (   0.0 /  15.0) 
     Solute as Donor -    Hydrogen Bonds =     6.000  (   0.0 /   6.0) 
     Solute as Acceptor - Hydrogen Bonds =    14.000  (   2.0 /  20.0) 
     Solute Globularity   (Sphere = 1)   =     0.811  (  0.75 /  0.95) 
     Solute Ionization Potential (eV)    =     8.495  (   7.9 /  10.5) 
     Solute Electron Affinity    (eV)    =     1.075  (  -0.9 /   1.7) 
 Predictions for Properties:
   QP Polarizability (Angstroms^3)       =    36.182M (  13.0 /  70.0) 
   QP log P  for     hexadecane/gas      =    14.889M (   4.0 /  18.0) 
   QP log P  for     octanol/gas         =    29.523M (   8.0 /  35.0) 
   QP log P  for     water/gas           =    24.767M (   4.0 /  45.0) 
   QP log P  for     octanol/water       =    -0.695  (  -2.0 /   6.5) 
   QP log S  for   aqueous solubility    =    -2.383  (  -6.5 /   0.5) 
   QP log S - conformation independent   =    -3.318  (  -6.5 /   0.5) 
   QP log K hsa Serum Protein Binding    =    -1.224  (  -1.5 /   1.5) 
   QP log BB for     brain/blood         =    -3.666  (  -3.0 /   1.2)*
   No. of Primary Metabolites            =         6  (   1.0 /   8.0) 
   Predicted CNS Activity (-- to ++)     =      -- 
   HERG K+ Channel Blockage: log IC50    =    -3.730  (concern below -5)
   Apparent Caco-2 Permeability (nm/sec) =         1  (<25 poor, >500 great)
   Apparent MDCK   Permeability (nm/sec) =         0M (<25 poor, >500 great)
   QP log Kp for skin permeability       =    -5.927  (Kp in cm/hr)
   Jm, max transdermal transport rate    =     0.002  (micrograms/cm^2-hr)
   Lipinski Rule of 5 Violations         =         2  (maximum is 4)
   Jorgensen Rule of 3 Violations        =         1  (maximum is 3)
   % Human Oral Absorption in GI (+-20%) =         0  (<25% is poor)
   Qual. Model for Human Oral Absorption =       low  (>80% is high)

       A * indicates a violation of the 95% range. # stars =  3
      An M indicates MW is outside training range.


       5 of   1712 molecules most similar to BC00288.mol:
          Name                           Similarity(%)
Mopidamol                                     75.29
Aminopterin                                   73.86
Methotrexate                                  71.88
Sulfoxone                                     68.19
Lisinopril                                    68.13

    QP Breakdown (< for descriptor over training max)
                log Po/w                    -log S
 H-bond Donor        -1.799    H-bond Donor        -2.410 
 H-bond Acceptor     -6.818    H-bond Acceptor     -7.330 
 Volume               7.954    SASA                12.897 
 Ac x Dn^.5/SASA      2.235    Ac x Dn^.5/SASA      5.037 
 FISA                -1.870    Rotor Bonds         -2.116 
 Non-con amines       0.000    N Protonation        0.000 
 Non-con amides       0.000    Non-con amides       0.000 
 WPSA & PISA          0.309    WPSA                 0.088 
 Constant            -0.705    Constant            -3.783 
 Total               -0.695    Total                2.383


                log BB                    log PMDCK
 Hydrophilic SASA    -3.495<   Hydrophilic SASA    -3.534<
 WPSA                 0.049    WPSA                 0.110 
 Rotor Bonds         -0.783                         0.000 
 N Protonation        0.000    Non-con amines       0.000 
 FOSA                 0.000    COOH/SO3H acids     -0.540 
 Constant             0.564    Constant             3.771
 Total               -3.666    Total               -0.193

