 Primary Metabolites & Reactive FGs:
 > Metabolism likely: ether dealkylation
 > Metabolism likely: aromatic OH oxidation
 > Metabolism likely: aromatic OH oxidation
 > Metabolism likely: benzylic-like H -> alcohol
 > Metabolism likely: benzylic-like H -> alcohol
 > Metabolism likely: benzylic-like H -> alcohol

 Principal Descriptors:                             (Range 95% of Drugs)
     Solute        Molecular Weight      =   285.342  ( 130.0 / 725.0) 
     Solute        Dipole Moment (D)     =     1.609  (   1.0 /  12.5) 
     Solute        Total        SASA     =   528.377  ( 300.0 /1000.0) 
     Solute        Hydrophobic  SASA     =   232.832  (   0.0 / 750.0) 
     Solute        Hydrophilic  SASA     =   105.489  (   7.0 / 330.0) 
     Solute        Carbon Pi    SASA     =   190.056  (   0.0 / 450.0) 
     Solute        Weakly Polar SASA     =     0.000  (   0.0 / 175.0) 
     Solute        Molecular Volume (A^3)=   926.250  ( 500.0 /2000.0) 
     Solute        vdW Polar SA (PSA)    =    63.948  (   7.0 / 200.0) 
     Solute        No. of Rotatable Bonds=     5.000  (   0.0 /  15.0) 
     Solute as Donor -    Hydrogen Bonds =     3.000  (   0.0 /   6.0) 
     Solute as Acceptor - Hydrogen Bonds =     3.750  (   2.0 /  20.0) 
     Solute Globularity   (Sphere = 1)   =     0.870  (  0.75 /  0.95) 
     Solute Ionization Potential (eV)    =     8.719  (   7.9 /  10.5) 
     Solute Electron Affinity    (eV)    =    -0.157  (  -0.9 /   1.7) 
 Predictions for Properties:
   QP Polarizability (Angstroms^3)       =    29.519M (  13.0 /  70.0) 
   QP log P  for     hexadecane/gas      =     9.634M (   4.0 /  18.0) 
   QP log P  for     octanol/gas         =    15.788M (   8.0 /  35.0) 
   QP log P  for     water/gas           =     9.986M (   4.0 /  45.0) 
   QP log P  for     octanol/water       =     2.123  (  -2.0 /   6.5) 
   QP log S  for   aqueous solubility    =    -2.257  (  -6.5 /   0.5) 
   QP log S - conformation independent   =    -3.050  (  -6.5 /   0.5) 
   QP log K hsa Serum Protein Binding    =     0.070  (  -1.5 /   1.5) 
   QP log BB for     brain/blood         =    -0.269  (  -3.0 /   1.2) 
   No. of Primary Metabolites            =         6  (   1.0 /   8.0) 
   Predicted CNS Activity (-- to ++)     =      +/-
   HERG K+ Channel Blockage: log IC50    =    -5.273  (concern below -5)
   Apparent Caco-2 Permeability (nm/sec) =       246  (<25 poor, >500 great)
   Apparent MDCK   Permeability (nm/sec) =       120  (<25 poor, >500 great)
   QP log Kp for skin permeability       =    -4.377  (Kp in cm/hr)
   Jm, max transdermal transport rate    =     0.066  (micrograms/cm^2-hr)
   Lipinski Rule of 5 Violations         =         0  (maximum is 4)
   Jorgensen Rule of 3 Violations        =         0  (maximum is 3)
   % Human Oral Absorption in GI (+-20%) =        82  (<25% is poor)
   Qual. Model for Human Oral Absorption =      HIGH  (>80% is high)

      An M indicates MW is outside training range.


       5 of   1712 molecules most similar to BC00327.mol:
          Name                           Similarity(%)
Papaveroline                                  87.12
Methylergonovine                              86.11
Zolmitriptan                                  85.94
Phentolamine                                  85.53
Tinoridine                                    83.48

    QP Breakdown (< for descriptor over training max)
                log Po/w                    -log S
 H-bond Donor        -0.900    H-bond Donor        -1.205 
 H-bond Acceptor     -1.826    H-bond Acceptor     -1.963 
 Volume               6.043    SASA                10.013 
 Ac x Dn^.5/SASA      0.545    Ac x Dn^.5/SASA      1.229 
 FISA                -0.730    Rotor Bonds         -0.814 
 Non-con amines      -0.527    N Protonation       -1.220 
 Non-con amides       0.000    Non-con amides       0.000 
 WPSA & PISA          0.223    WPSA                 0.000 
 Constant            -0.705    Constant            -3.783 
 Total                2.123    Total                2.257


                log BB                    log PMDCK
 Hydrophilic SASA    -0.930    Hydrophilic SASA    -1.081 
 WPSA                 0.000    WPSA                 0.000 
 Rotor Bonds         -0.301                         0.000 
 N Protonation        0.399    Non-con amines      -0.608 
 FOSA                 0.000    COOH/SO3H acids      0.000 
 Constant             0.564    Constant             3.771
 Total               -0.269    Total                2.082

BC00328.mol                             
 Has an odd number of electrons or is charged 173 - molecule not processed
BC00329.mol                             
 Has an odd number of electrons or is charged 179 - molecule not processed
BC00330.mol                             
 Has an odd number of electrons or is charged 205 - molecule not processed
