 Primary Metabolites & Reactive FGs:
 > Metabolism likely: ether dealkylation
 > Metabolism likely: aromatic OH oxidation
 > Metabolism likely: ether dealkylation
 > Metabolism likely: aromatic OH oxidation
 > Metabolism likely: aromatic OH oxidation
 > Metabolism likely: amine dealkylation
 > Metabolism likely: benzylic-like H -> alcohol
 > Metabolism likely: benzylic-like H -> alcohol
 > Metabolism likely: benzylic-like H -> alcohol
 > Metabolism likely: benzylic-like H -> alcohol
 > Metabolism likely: benzylic-like H -> alcohol
 > Metabolism likely: benzylic-like H -> alcohol

 Principal Descriptors:                             (Range 95% of Drugs)
     Solute        Molecular Weight      =   582.695  ( 130.0 / 725.0) 
     Solute        Dipole Moment (D)     =     2.362  (   1.0 /  12.5) 
     Solute        Total        SASA     =   861.259  ( 300.0 /1000.0) 
     Solute        Hydrophobic  SASA     =   468.908  (   0.0 / 750.0) 
     Solute        Hydrophilic  SASA     =   103.744  (   7.0 / 330.0) 
     Solute        Carbon Pi    SASA     =   288.607  (   0.0 / 450.0) 
     Solute        Weakly Polar SASA     =     0.000  (   0.0 / 175.0) 
     Solute        Molecular Volume (A^3)=  1705.488  ( 500.0 /2000.0) 
     Solute        vdW Polar SA (PSA)    =   101.613  (   7.0 / 200.0) 
     Solute        No. of Rotatable Bonds=    11.000  (   0.0 /  15.0) 
     Solute as Donor -    Hydrogen Bonds =     4.000  (   0.0 /   6.0) 
     Solute as Acceptor - Hydrogen Bonds =     7.750  (   2.0 /  20.0) 
     Solute Globularity   (Sphere = 1)   =     0.802  (  0.75 /  0.95) 
     Solute Ionization Potential (eV)    =     8.687  (   7.9 /  10.5) 
     Solute Electron Affinity    (eV)    =    -0.050  (  -0.9 /   1.7) 
 Predictions for Properties:
   QP Polarizability (Angstroms^3)       =    57.793M (  13.0 /  70.0) 
   QP log P  for     hexadecane/gas      =    17.632M (   4.0 /  18.0) 
   QP log P  for     octanol/gas         =    29.286M (   8.0 /  35.0) 
   QP log P  for     water/gas           =    15.526M (   4.0 /  45.0) 
   QP log P  for     octanol/water       =     4.812  (  -2.0 /   6.5) 
   QP log S  for   aqueous solubility    =    -4.443  (  -6.5 /   0.5) 
   QP log S - conformation independent   =    -7.114  (  -6.5 /   0.5) 
   QP log K hsa Serum Protein Binding    =     1.070  (  -1.5 /   1.5) 
   QP log BB for     brain/blood         =    -0.379  (  -3.0 /   1.2) 
   No. of Primary Metabolites            =        12  (   1.0 /   8.0)*
   Predicted CNS Activity (-- to ++)     =      +/-
   HERG K+ Channel Blockage: log IC50    =    -7.572  (concern below -5)
   Apparent Caco-2 Permeability (nm/sec) =        63  (<25 poor, >500 great)
   Apparent MDCK   Permeability (nm/sec) =        31M (<25 poor, >500 great)
   QP log Kp for skin permeability       =    -5.484  (Kp in cm/hr)
   Jm, max transdermal transport rate    =     0.000  (micrograms/cm^2-hr)
   Lipinski Rule of 5 Violations         =         1  (maximum is 4)
   Jorgensen Rule of 3 Violations        =         1  (maximum is 3)
   % Human Oral Absorption in GI (+-20%) =        74  (<25% is poor)
   Qual. Model for Human Oral Absorption =       low  (>80% is high)

       A * indicates a violation of the 95% range. # stars =  1
      An M indicates MW is outside training range.


       5 of   1712 molecules most similar to BC00361.mol:
          Name                           Similarity(%)
Nelfinavir                                    69.10
Manidipine                                    68.15
Candesartan                                   68.15
Cisapride                                     64.96
Fexofenadine                                  64.91

    QP Breakdown (< for descriptor over training max)
                log Po/w                    -log S
 H-bond Donor        -1.200    H-bond Donor        -1.606 
 H-bond Acceptor     -3.774    H-bond Acceptor     -4.058 
 Volume              11.127    SASA                16.321 
 Ac x Dn^.5/SASA      0.798    Ac x Dn^.5/SASA      1.799 
 FISA                -0.718    Rotor Bonds         -1.791 
 Non-con amines      -1.054    N Protonation       -2.439 
 Non-con amides       0.000    Non-con amides       0.000 
 WPSA & PISA          0.338    WPSA                 0.000 
 Constant            -0.705    Constant            -3.783 
 Total                4.812    Total                4.443


                log BB                    log PMDCK
 Hydrophilic SASA    -1.077    Hydrophilic SASA    -1.063 
 WPSA                 0.000    WPSA                 0.000 
 Rotor Bonds         -0.663                         0.000 
 N Protonation        0.797    Non-con amines      -1.216 
 FOSA                 0.000    COOH/SO3H acids      0.000 
 Constant             0.564    Constant             3.771
 Total               -0.379    Total                1.491

