 Primary Metabolites & Reactive FGs:
 none

 Principal Descriptors:                             (Range 95% of Drugs)
     Solute        Molecular Weight      =   194.193  ( 130.0 / 725.0) 
     Solute        Dipole Moment (D)     =     4.927  (   1.0 /  12.5) 
     Solute        Total        SASA     =   400.043  ( 300.0 /1000.0) 
     Solute        Hydrophobic  SASA     =   239.359  (   0.0 / 750.0) 
     Solute        Hydrophilic  SASA     =   102.009  (   7.0 / 330.0) 
     Solute        Carbon Pi    SASA     =    58.674  (   0.0 / 450.0) 
     Solute        Weakly Polar SASA     =     0.000  (   0.0 / 175.0) 
     Solute        Molecular Volume (A^3)=   648.274  ( 500.0 /2000.0) 
     Solute        vdW Polar SA (PSA)    =    74.096  (   7.0 / 200.0) 
     Solute        No. of Rotatable Bonds=     0.000  (   0.0 /  15.0) 
     Solute as Donor -    Hydrogen Bonds =     0.000  (   0.0 /   6.0) 
     Solute as Acceptor - Hydrogen Bonds =     5.000  (   2.0 /  20.0) 
     Solute Globularity   (Sphere = 1)   =     0.906  (  0.75 /  0.95) 
     Solute Ionization Potential (eV)    =     9.064  (   7.9 /  10.5) 
     Solute Electron Affinity    (eV)    =     0.340  (  -0.9 /   1.7) 
 Predictions for Properties:
   QP Polarizability (Angstroms^3)       =    20.350  (  13.0 /  70.0) 
   QP log P  for     hexadecane/gas      =     5.461  (   4.0 /  18.0) 
   QP log P  for     octanol/gas         =     9.340  (   8.0 /  35.0) 
   QP log P  for     water/gas           =     6.700  (   4.0 /  45.0) 
   QP log P  for     octanol/water       =    -0.068  (  -2.0 /   6.5) 
   QP log S  for   aqueous solubility    =    -0.924  (  -6.5 /   0.5) 
   QP log S - conformation independent   =    -1.417  (  -6.5 /   0.5) 
   QP log K hsa Serum Protein Binding    =    -0.838  (  -1.5 /   1.5) 
   QP log BB for     brain/blood         =    -0.266  (  -3.0 /   1.2) 
   No. of Primary Metabolites            =         0  (   1.0 /   8.0)*
   Predicted CNS Activity (-- to ++)     =      +/-
   HERG K+ Channel Blockage: log IC50    =    -3.341  (concern below -5)
   Apparent Caco-2 Permeability (nm/sec) =      1067  (<25 poor, >500 great)
   Apparent MDCK   Permeability (nm/sec) =       531  (<25 poor, >500 great)
   QP log Kp for skin permeability       =    -3.193  (Kp in cm/hr)
   Jm, max transdermal transport rate    =     8.230  (micrograms/cm^2-hr)
   Lipinski Rule of 5 Violations         =         0  (maximum is 4)
   Jorgensen Rule of 3 Violations        =         0  (maximum is 3)
   % Human Oral Absorption in GI (+-20%) =        81  (<25% is poor)
   Qual. Model for Human Oral Absorption =      HIGH  (>80% is high)

       A * indicates a violation of the 95% range. # stars =  1

       5 of   1712 molecules most similar to BC00409.mol:
          Name                           Similarity(%)
Dimenhydrinate                                96.30
Pamabrom                                      94.67
Menadione                                     91.77
Diazoxide                                     89.96
Niridazole                                    89.77

    QP Breakdown (< for descriptor over training max)
                log Po/w                    -log S
 H-bond Donor         0.000    H-bond Donor         0.000 
 H-bond Acceptor     -2.435    H-bond Acceptor     -2.618 
 Volume               4.229    SASA                 7.581 
 Ac x Dn^.5/SASA      0.000    Ac x Dn^.5/SASA      0.000 
 FISA                -0.706    Rotor Bonds          0.000 
 Non-con amines       0.000    N Protonation        0.000 
 Non-con amides       0.000    Non-con amides       0.000 
 WPSA & PISA          0.069    WPSA                 0.000 
 Constant            -0.705    Constant            -3.783 
 Total                0.452    Total                1.180


                log BB                    log PMDCK
 Hydrophilic SASA    -0.829    Hydrophilic SASA    -1.046 
 WPSA                 0.000    WPSA                 0.000 
 Rotor Bonds          0.000                         0.000 
 N Protonation        0.000    Non-con amines       0.000 
 FOSA                 0.000    COOH/SO3H acids      0.000 
 Constant             0.564    Constant             3.771
 Total               -0.266    Total                2.725

