 Primary Metabolites & Reactive FGs:
 > Metabolism likely: ether dealkylation
 > Metabolism likely: ether dealkylation
 > Metabolism likely: ether dealkylation
 > Metabolism likely: allylic H -> alcohol
 > Metabolism likely: benzylic-like H -> alcohol
 > Reactive FG: acceptor carbonyl or derivative

 Principal Descriptors:                             (Range 95% of Drugs)
     Solute        Molecular Weight      =   399.443  ( 130.0 / 725.0) 
     Solute        Dipole Moment (D)     =     5.476  (   1.0 /  12.5) 
     Solute        Total        SASA     =   674.378  ( 300.0 /1000.0) 
     Solute        Hydrophobic  SASA     =   502.372  (   0.0 / 750.0) 
     Solute        Hydrophilic  SASA     =   106.317  (   7.0 / 330.0) 
     Solute        Carbon Pi    SASA     =    65.689  (   0.0 / 450.0) 
     Solute        Weakly Polar SASA     =     0.000  (   0.0 / 175.0) 
     Solute        Molecular Volume (A^3)=  1229.516  ( 500.0 /2000.0) 
     Solute        vdW Polar SA (PSA)    =    92.749  (   7.0 / 200.0) 
     Solute        No. of Rotatable Bonds=     5.000  (   0.0 /  15.0) 
     Solute as Donor -    Hydrogen Bonds =     1.000  (   0.0 /   6.0) 
     Solute as Acceptor - Hydrogen Bonds =     7.500  (   2.0 /  20.0) 
     Solute Globularity   (Sphere = 1)   =     0.823  (  0.75 /  0.95) 
     Solute Ionization Potential (eV)    =     8.610  (   7.9 /  10.5) 
     Solute Electron Affinity    (eV)    =     1.317  (  -0.9 /   1.7) 
 Predictions for Properties:
   QP Polarizability (Angstroms^3)       =    40.468M (  13.0 /  70.0) 
   QP log P  for     hexadecane/gas      =    11.081M (   4.0 /  18.0) 
   QP log P  for     octanol/gas         =    18.765M (   8.0 /  35.0) 
   QP log P  for     water/gas           =    12.613M (   4.0 /  45.0) 
   QP log P  for     octanol/water       =     2.573  (  -2.0 /   6.5) 
   QP log S  for   aqueous solubility    =    -3.914  (  -6.5 /   0.5) 
   QP log S - conformation independent   =    -3.856  (  -6.5 /   0.5) 
   QP log K hsa Serum Protein Binding    =    -0.055  (  -1.5 /   1.5) 
   QP log BB for     brain/blood         =    -0.784  (  -3.0 /   1.2) 
   No. of Primary Metabolites            =         5  (   1.0 /   8.0) 
   Predicted CNS Activity (-- to ++)     =       - 
   HERG K+ Channel Blockage: log IC50    =    -3.334  (concern below -5)
   Apparent Caco-2 Permeability (nm/sec) =       542  (<25 poor, >500 great)
   Apparent MDCK   Permeability (nm/sec) =       479  (<25 poor, >500 great)
   QP log Kp for skin permeability       =    -2.767  (Kp in cm/hr)
   Jm, max transdermal transport rate    =     0.083  (micrograms/cm^2-hr)
   Lipinski Rule of 5 Violations         =         0  (maximum is 4)
   Jorgensen Rule of 3 Violations        =         0  (maximum is 3)
   % Human Oral Absorption in GI (+-20%) =        91  (<25% is poor)
   Qual. Model for Human Oral Absorption =      HIGH  (>80% is high)

      An M indicates MW is outside training range.


       5 of   1712 molecules most similar to BC00418.mol:
          Name                           Similarity(%)
Diltiazem                                     82.83
Bunazosin                                     82.20
Fludrocortisone                               81.56
Fominoben                                     80.75
Meprednisone                                  80.23

    QP Breakdown (< for descriptor over training max)
                log Po/w                    -log S
 H-bond Donor        -0.300    H-bond Donor        -0.402 
 H-bond Acceptor     -3.652    H-bond Acceptor     -3.927 
 Volume               8.021    SASA                12.779 
 Ac x Dn^.5/SASA      0.493    Ac x Dn^.5/SASA      1.112 
 FISA                -0.736    Rotor Bonds         -0.814 
 Non-con amines       0.000    N Protonation        0.000 
 Non-con amides      -0.626    Non-con amides      -1.052 
 WPSA & PISA          0.077    WPSA                 0.000 
 Constant            -0.705    Constant            -3.783 
 Total                2.573    Total                3.914


                log BB                    log PMDCK
 Hydrophilic SASA    -1.046    Hydrophilic SASA    -1.090 
 WPSA                 0.000    WPSA                 0.000 
 Rotor Bonds         -0.301                         0.000 
 N Protonation        0.000    Non-con amines       0.000 
 FOSA                 0.000    COOH/SO3H acids      0.000 
 Constant             0.564    Constant             3.771
 Total               -0.784    Total                2.681

