 Primary Metabolites & Reactive FGs:
 > Reactive FG: unhindered ester
 > Metabolism likely: alpha hydroxylation of cyclic ether
 > Metabolism likely: secondary alcohol -> ketone
 > Metabolism likely: secondary alcohol -> ketone
 > Metabolism likely: secondary alcohol -> ketone
 > Metabolism likely: primary alcohol -> acid
 > Metabolism likely: secondary alcohol -> ketone
 > Metabolism likely: alpha, beta dehydrogenation at carbonyl

 Principal Descriptors:                             (Range 95% of Drugs)
     Solute        Molecular Weight      =   389.392  ( 130.0 / 725.0) 
     Solute        Dipole Moment (D)     =     7.670  (   1.0 /  12.5) 
     Solute        Total        SASA     =   588.482  ( 300.0 /1000.0) 
     Solute        Hydrophobic  SASA     =   167.681  (   0.0 / 750.0) 
     Solute        Hydrophilic  SASA     =   349.431  (   7.0 / 330.0)*
     Solute        Carbon Pi    SASA     =    40.153  (   0.0 / 450.0) 
     Solute        Weakly Polar SASA     =    31.217  (   0.0 / 175.0) 
     Solute        Molecular Volume (A^3)=  1060.801  ( 500.0 /2000.0) 
     Solute        vdW Polar SA (PSA)    =   206.472  (   7.0 / 200.0)*
     Solute        No. of Rotatable Bonds=    15.000  (   0.0 /  15.0) 
     Solute as Donor -    Hydrogen Bonds =     6.000  (   0.0 /   6.0) 
     Solute as Acceptor - Hydrogen Bonds =    15.700  (   2.0 /  20.0) 
     Solute Globularity   (Sphere = 1)   =     0.855  (  0.75 /  0.95) 
     Solute Ionization Potential (eV)    =     9.789  (   7.9 /  10.5) 
     Solute Electron Affinity    (eV)    =     1.224  (  -0.9 /   1.7) 
 Predictions for Properties:
   QP Polarizability (Angstroms^3)       =    27.051M (  13.0 /  70.0) 
   QP log P  for     hexadecane/gas      =    12.426M (   4.0 /  18.0) 
   QP log P  for     octanol/gas         =    27.238M (   8.0 /  35.0) 
   QP log P  for     water/gas           =    24.739M (   4.0 /  45.0) 
   QP log P  for     octanol/water       =    -2.067  (  -2.0 /   6.5)*
   QP log S  for   aqueous solubility    =    -0.965  (  -6.5 /   0.5) 
   QP log S - conformation independent   =    -1.283  (  -6.5 /   0.5) 
   QP log K hsa Serum Protein Binding    =    -1.574  (  -1.5 /   1.5)*
   QP log BB for     brain/blood         =    -3.452  (  -3.0 /   1.2)*
   No. of Primary Metabolites            =         7  (   1.0 /   8.0) 
   Predicted CNS Activity (-- to ++)     =      -- 
   HERG K+ Channel Blockage: log IC50    =    -2.266  (concern below -5)
   Apparent Caco-2 Permeability (nm/sec) =         1  (<25 poor, >500 great)
   Apparent MDCK   Permeability (nm/sec) =         0  (<25 poor, >500 great)
   QP log Kp for skin permeability       =    -6.378  (Kp in cm/hr)
   Jm, max transdermal transport rate    =     0.018  (micrograms/cm^2-hr)
   Lipinski Rule of 5 Violations         =         2  (maximum is 4)
   Jorgensen Rule of 3 Violations        =         2  (maximum is 3)
   % Human Oral Absorption in GI (+-20%) =         0  (<25% is poor)
   Qual. Model for Human Oral Absorption =       low  (>80% is high)

       A * indicates a violation of the 95% range. # stars =  5
      An M indicates MW is outside training range.


       5 of   1712 molecules most similar to BC00496.mol:
          Name                           Similarity(%)
Lactitol                                      69.41
Lactulose                                     67.56
Valganciclovir                                64.80
Voglibose                                     62.68
Thiamine                                      58.32

    QP Breakdown (< for descriptor over training max)
                log Po/w                    -log S
 H-bond Donor        -1.799    H-bond Donor        -2.410 
 H-bond Acceptor     -7.646    H-bond Acceptor     -8.221 
 Volume               6.921    SASA                11.152 
 Ac x Dn^.5/SASA      2.899    Ac x Dn^.5/SASA      6.532 
 FISA                -1.903    Rotor Bonds         -2.442<
 Non-con amines       0.000    N Protonation        0.000 
 Non-con amides       0.000    Non-con amides       0.000 
 WPSA & PISA          0.166    WPSA                 0.136 
 Constant            -0.705    Constant            -3.783 
 Total               -2.067    Total                0.965


                log BB                    log PMDCK
 Hydrophilic SASA    -3.188<   Hydrophilic SASA    -3.582<
 WPSA                 0.077    WPSA                 0.171 
 Rotor Bonds         -0.904<                        0.000 
 N Protonation        0.000    Non-con amines       0.000 
 FOSA                 0.000    COOH/SO3H acids     -0.540 
 Constant             0.564    Constant             3.771
 Total               -3.452    Total               -0.180

