 Primary Metabolites & Reactive FGs:
 > Metabolism likely: secondary alcohol -> ketone
 > Metabolism likely: secondary alcohol -> ketone
 > Metabolism likely: secondary alcohol -> ketone
 > Metabolism likely: primary alcohol -> acid
 > Reactive FG: acetal or analog
 > Metabolism likely: benzylic-like H -> alcohol
 > Metabolism likely: para hydroxylation of aryl

 Principal Descriptors:                             (Range 95% of Drugs)
     Solute        Molecular Weight      =   295.291  ( 130.0 / 725.0) 
     Solute        Dipole Moment (D)     =     7.089  (   1.0 /  12.5) 
     Solute        Total        SASA     =   524.561  ( 300.0 /1000.0) 
     Solute        Hydrophobic  SASA     =   101.156  (   0.0 / 750.0) 
     Solute        Hydrophilic  SASA     =   247.155  (   7.0 / 330.0) 
     Solute        Carbon Pi    SASA     =   176.250  (   0.0 / 450.0) 
     Solute        Weakly Polar SASA     =     0.000  (   0.0 / 175.0) 
     Solute        Molecular Volume (A^3)=   920.435  ( 500.0 /2000.0) 
     Solute        vdW Polar SA (PSA)    =   126.786  (   7.0 / 200.0) 
     Solute        No. of Rotatable Bonds=     9.000  (   0.0 /  15.0) 
     Solute as Donor -    Hydrogen Bonds =     4.000  (   0.0 /   6.0) 
     Solute as Acceptor - Hydrogen Bonds =    11.700  (   2.0 /  20.0) 
     Solute Globularity   (Sphere = 1)   =     0.872  (  0.75 /  0.95) 
     Solute Ionization Potential (eV)    =     9.955  (   7.9 /  10.5) 
     Solute Electron Affinity    (eV)    =     0.207  (  -0.9 /   1.7) 
 Predictions for Properties:
   QP Polarizability (Angstroms^3)       =    26.586M (  13.0 /  70.0) 
   QP log P  for     hexadecane/gas      =    10.719M (   4.0 /  18.0) 
   QP log P  for     octanol/gas         =    21.770M (   8.0 /  35.0) 
   QP log P  for     water/gas           =    19.259M (   4.0 /  45.0) 
   QP log P  for     octanol/water       =    -1.123  (  -2.0 /   6.5) 
   QP log S  for   aqueous solubility    =    -2.419  (  -6.5 /   0.5) 
   QP log S - conformation independent   =    -2.433  (  -6.5 /   0.5) 
   QP log K hsa Serum Protein Binding    =    -1.026  (  -1.5 /   1.5) 
   QP log BB for     brain/blood         =    -2.144  (  -3.0 /   1.2) 
   No. of Primary Metabolites            =         6  (   1.0 /   8.0) 
   Predicted CNS Activity (-- to ++)     =      -- 
   HERG K+ Channel Blockage: log IC50    =    -4.438  (concern below -5)
   Apparent Caco-2 Permeability (nm/sec) =        44  (<25 poor, >500 great)
   Apparent MDCK   Permeability (nm/sec) =        17  (<25 poor, >500 great)
   QP log Kp for skin permeability       =    -4.590  (Kp in cm/hr)
   Jm, max transdermal transport rate    =     0.029  (micrograms/cm^2-hr)
   Lipinski Rule of 5 Violations         =         0  (maximum is 4)
   Jorgensen Rule of 3 Violations        =         0  (maximum is 3)
   % Human Oral Absorption in GI (+-20%) =        50  (<25% is poor)
   Qual. Model for Human Oral Absorption =    Medium  (>80% is high)

      An M indicates MW is outside training range.


       5 of   1712 molecules most similar to BC00053.mol:
          Name                           Similarity(%)
Sorivudine                                    77.52
Valaciclovir                                  77.17
Exifone                                       76.03
Acetosulfone                                  75.96
Ganciclovir                                   74.10

    QP Breakdown (< for descriptor over training max)
                log Po/w                    -log S
 H-bond Donor        -1.200    H-bond Donor        -1.606 
 H-bond Acceptor     -5.698    H-bond Acceptor     -6.126 
 Volume               6.005    SASA                 9.940 
 Ac x Dn^.5/SASA      1.979    Ac x Dn^.5/SASA      4.459 
 FISA                -1.711    Rotor Bonds         -1.465 
 Non-con amines       0.000    N Protonation        0.000 
 Non-con amides       0.000    Non-con amides       0.000 
 WPSA & PISA          0.206    WPSA                 0.000 
 Constant            -0.705    Constant            -2.783 
 Total               -1.123    Total                2.419


                log BB                    log PMDCK
 Hydrophilic SASA    -2.165    Hydrophilic SASA    -2.533 
 WPSA                 0.000    WPSA                 0.000 
 Rotor Bonds         -0.542                         0.000 
 N Protonation        0.000    Non-con amines       0.000 
 FOSA                 0.000    COOH/SO3H acids      0.000 
 Constant             0.564    Constant             3.771
 Total               -2.144    Total                1.237

