 Primary Metabolites & Reactive FGs:
 > Metabolism likely: tertiary alcohol E1 or SN1
 > Metabolism likely: tertiary alcohol E1 or SN1
 > Reactive FG: unhindered ester
 > Metabolism likely: amine dealkylation
 > Metabolism likely: aniline NH -> NOH or NCOR
 > Metabolism likely: para hydroxylation of aryl

 Principal Descriptors:                             (Range 95% of Drugs)
     Solute        Molecular Weight      =   586.724  ( 130.0 / 725.0) 
     Solute        Dipole Moment (D)     =     4.649  (   1.0 /  12.5) 
     Solute        Total        SASA     =   835.821  ( 300.0 /1000.0) 
     Solute        Hydrophobic  SASA     =   555.441  (   0.0 / 750.0) 
     Solute        Hydrophilic  SASA     =   132.956  (   7.0 / 330.0) 
     Solute        Carbon Pi    SASA     =   147.424  (   0.0 / 450.0) 
     Solute        Weakly Polar SASA     =     0.000  (   0.0 / 175.0) 
     Solute        Molecular Volume (A^3)=  1662.411  ( 500.0 /2000.0) 
     Solute        vdW Polar SA (PSA)    =   111.573  (   7.0 / 200.0) 
     Solute        No. of Rotatable Bonds=    11.000  (   0.0 /  15.0) 
     Solute as Donor -    Hydrogen Bonds =     3.000  (   0.0 /   6.0) 
     Solute as Acceptor - Hydrogen Bonds =    12.300  (   2.0 /  20.0) 
     Solute Globularity   (Sphere = 1)   =     0.812  (  0.75 /  0.95) 
     Solute Ionization Potential (eV)    =     8.349  (   7.9 /  10.5) 
     Solute Electron Affinity    (eV)    =     0.342  (  -0.9 /   1.7) 
 Predictions for Properties:
   QP Polarizability (Angstroms^3)       =    54.720M (  13.0 /  70.0) 
   QP log P  for     hexadecane/gas      =    16.179M (   4.0 /  18.0) 
   QP log P  for     octanol/gas         =    29.295M (   8.0 /  35.0) 
   QP log P  for     water/gas           =    17.720M (   4.0 /  45.0) 
   QP log P  for     octanol/water       =     3.107  (  -2.0 /   6.5) 
   QP log S  for   aqueous solubility    =    -3.949  (  -6.5 /   0.5) 
   QP log S - conformation independent   =    -5.385  (  -6.5 /   0.5) 
   QP log K hsa Serum Protein Binding    =     0.238  (  -1.5 /   1.5) 
   QP log BB for     brain/blood         =    -1.045  (  -3.0 /   1.2) 
   No. of Primary Metabolites            =         5  (   1.0 /   8.0) 
   Predicted CNS Activity (-- to ++)     =      -- 
   HERG K+ Channel Blockage: log IC50    =    -6.004  (concern below -5)
   Apparent Caco-2 Permeability (nm/sec) =       135  (<25 poor, >500 great)
   Apparent MDCK   Permeability (nm/sec) =        63M (<25 poor, >500 great)
   QP log Kp for skin permeability       =    -4.457  (Kp in cm/hr)
   Jm, max transdermal transport rate    =     0.002  (micrograms/cm^2-hr)
   Lipinski Rule of 5 Violations         =         1  (maximum is 4)
   Jorgensen Rule of 3 Violations        =         0  (maximum is 3)
   % Human Oral Absorption in GI (+-20%) =        70  (<25% is poor)
   Qual. Model for Human Oral Absorption =      HIGH  (>80% is high)

      An M indicates MW is outside training range.


       5 of   1712 molecules most similar to BC00623.mol:
          Name                           Similarity(%)
Olmesartan                                    81.01
Bosentan                                      79.00
Nelfinavir                                    72.86
Prednisolone                                  71.47
Penimepicycline                               71.02

    QP Breakdown (< for descriptor over training max)
                log Po/w                    -log S
 H-bond Donor        -0.900    H-bond Donor        -1.205 
 H-bond Acceptor     -5.990    H-bond Acceptor     -6.440 
 Volume              10.846    SASA                15.839 
 Ac x Dn^.5/SASA      1.131    Ac x Dn^.5/SASA      2.548 
 FISA                -0.920    Rotor Bonds         -1.791 
 Non-con amines      -0.527    N Protonation       -1.220 
 Non-con amides       0.000    Non-con amides       0.000 
 WPSA & PISA          0.173    WPSA                 0.000 
 Constant            -0.705    Constant            -3.783 
 Total                3.107    Total                3.949


                log BB                    log PMDCK
 Hydrophilic SASA    -1.344    Hydrophilic SASA    -1.363 
 WPSA                 0.000    WPSA                 0.000 
 Rotor Bonds         -0.663                         0.000 
 N Protonation        0.399    Non-con amines      -0.608 
 FOSA                 0.000    COOH/SO3H acids      0.000 
 Constant             0.564    Constant             3.771
 Total               -1.045    Total                1.800

