 Primary Metabolites & Reactive FGs:
 > Metabolism likely: primary alcohol -> acid
 > Metabolism likely: aromatic OH oxidation
 > Metabolism likely: secondary alcohol -> ketone
 > Metabolism likely: ether dealkylation
 > Metabolism likely: aromatic OH oxidation
 > Metabolism likely: aromatic OH oxidation
 > Metabolism likely: aromatic OH oxidation
 > Metabolism likely: benzylic-like H -> alcohol
 > Metabolism likely: benzylic-like H -> alcohol
 > Metabolism likely: benzylic-like H -> alcohol

 Principal Descriptors:                             (Range 95% of Drugs)
     Solute        Molecular Weight      =   482.443  ( 130.0 / 725.0) 
     Solute        Dipole Moment (D)     =     4.706  (   1.0 /  12.5) 
     Solute        Total        SASA     =   738.588  ( 300.0 /1000.0) 
     Solute        Hydrophobic  SASA     =   180.278  (   0.0 / 750.0) 
     Solute        Hydrophilic  SASA     =   305.100  (   7.0 / 330.0) 
     Solute        Carbon Pi    SASA     =   253.211  (   0.0 / 450.0) 
     Solute        Weakly Polar SASA     =     0.000  (   0.0 / 175.0) 
     Solute        Molecular Volume (A^3)=  1346.066  ( 500.0 /2000.0) 
     Solute        vdW Polar SA (PSA)    =   175.565  (   7.0 / 200.0) 
     Solute        No. of Rotatable Bonds=     8.000  (   0.0 /  15.0) 
     Solute as Donor -    Hydrogen Bonds =     5.000  (   0.0 /   6.0) 
     Solute as Acceptor - Hydrogen Bonds =     9.650  (   2.0 /  20.0) 
     Solute Globularity   (Sphere = 1)   =     0.798  (  0.75 /  0.95) 
     Solute Ionization Potential (eV)    =     8.715  (   7.9 /  10.5) 
     Solute Electron Affinity    (eV)    =     0.607  (  -0.9 /   1.7) 
 Predictions for Properties:
   QP Polarizability (Angstroms^3)       =    44.997M (  13.0 /  70.0) 
   QP log P  for     hexadecane/gas      =    15.847M (   4.0 /  18.0) 
   QP log P  for     octanol/gas         =    28.342M (   8.0 /  35.0) 
   QP log P  for     water/gas           =    20.358M (   4.0 /  45.0) 
   QP log P  for     octanol/water       =     1.359  (  -2.0 /   6.5) 
   QP log S  for   aqueous solubility    =    -4.771  (  -6.5 /   0.5) 
   QP log S - conformation independent   =    -6.149  (  -6.5 /   0.5) 
   QP log K hsa Serum Protein Binding    =    -0.052  (  -1.5 /   1.5) 
   QP log BB for     brain/blood         =    -3.111  (  -3.0 /   1.2)*
   No. of Primary Metabolites            =        10  (   1.0 /   8.0)*
   Predicted CNS Activity (-- to ++)     =      -- 
   HERG K+ Channel Blockage: log IC50    =    -6.004  (concern below -5)
   Apparent Caco-2 Permeability (nm/sec) =        12  (<25 poor, >500 great)
   Apparent MDCK   Permeability (nm/sec) =         4M (<25 poor, >500 great)
   QP log Kp for skin permeability       =    -5.482  (Kp in cm/hr)
   Jm, max transdermal transport rate    =     0.000  (micrograms/cm^2-hr)
   Lipinski Rule of 5 Violations         =         1  (maximum is 4)
   Jorgensen Rule of 3 Violations        =         2  (maximum is 3)
   % Human Oral Absorption in GI (+-20%) =        42  (<25% is poor)
   Qual. Model for Human Oral Absorption =       low  (>80% is high)

       A * indicates a violation of the 95% range. # stars =  2
      An M indicates MW is outside training range.


       5 of   1712 molecules most similar to BC00675.mol:
          Name                           Similarity(%)
Idarubicin                                    74.69
Clomocycline                                  74.12
Doxycycline                                   71.71
Pranlukast                                    71.07
Tritoqualine                                  71.01

    QP Breakdown (< for descriptor over training max)
                log Po/w                    -log S
 H-bond Donor        -1.500    H-bond Donor        -2.008 
 H-bond Acceptor     -4.700    H-bond Acceptor     -5.053 
 Volume               8.782    SASA                13.996 
 Ac x Dn^.5/SASA      1.296    Ac x Dn^.5/SASA      2.920 
 FISA                -2.112    Rotor Bonds         -1.302 
 Non-con amines       0.000    N Protonation        0.000 
 Non-con amides       0.000    Non-con amides       0.000 
 WPSA & PISA          0.297    WPSA                 0.000 
 Constant            -0.705    Constant            -3.783 
 Total                1.359    Total                4.771


                log BB                    log PMDCK
 Hydrophilic SASA    -3.192<   Hydrophilic SASA    -3.127 
 WPSA                 0.000    WPSA                 0.000 
 Rotor Bonds         -0.482                         0.000 
 N Protonation        0.000    Non-con amines       0.000 
 FOSA                 0.000    COOH/SO3H acids      0.000 
 Constant             0.564    Constant             3.771
 Total               -3.111    Total                0.644

BC00676.mol                             
 Has an odd number of electrons or is charged 345 - molecule not processed
