 Primary Metabolites & Reactive FGs:
 > Metabolism likely: furan epoxidation
 > Metabolism likely: aromatic OH oxidation
 > Reactive FG: acetal or analog

 Principal Descriptors:                             (Range 95% of Drugs)
     Solute        Molecular Weight      =   282.252  ( 130.0 / 725.0) 
     Solute        Dipole Moment (D)     =     4.494  (   1.0 /  12.5) 
     Solute        Total        SASA     =   492.848  ( 300.0 /1000.0) 
     Solute        Hydrophobic  SASA     =    84.618  (   0.0 / 750.0) 
     Solute        Hydrophilic  SASA     =   111.527  (   7.0 / 330.0) 
     Solute        Carbon Pi    SASA     =   296.704  (   0.0 / 450.0) 
     Solute        Weakly Polar SASA     =     0.000  (   0.0 / 175.0) 
     Solute        Molecular Volume (A^3)=   834.533  ( 500.0 /2000.0) 
     Solute        vdW Polar SA (PSA)    =    78.017  (   7.0 / 200.0) 
     Solute        No. of Rotatable Bonds=     3.000  (   0.0 /  15.0) 
     Solute as Donor -    Hydrogen Bonds =     1.000  (   0.0 /   6.0) 
     Solute as Acceptor - Hydrogen Bonds =     4.750  (   2.0 /  20.0) 
     Solute Globularity   (Sphere = 1)   =     0.870  (  0.75 /  0.95) 
     Solute Ionization Potential (eV)    =     8.842  (   7.9 /  10.5) 
     Solute Electron Affinity    (eV)    =     1.188  (  -0.9 /   1.7) 
 Predictions for Properties:
   QP Polarizability (Angstroms^3)       =    28.151M (  13.0 /  70.0) 
   QP log P  for     hexadecane/gas      =     9.073M (   4.0 /  18.0) 
   QP log P  for     octanol/gas         =    13.482M (   8.0 /  35.0) 
   QP log P  for     water/gas           =     9.164M (   4.0 /  45.0) 
   QP log P  for     octanol/water       =     2.130  (  -2.0 /   6.5) 
   QP log S  for   aqueous solubility    =    -3.143  (  -6.5 /   0.5) 
   QP log S - conformation independent   =    -4.085  (  -6.5 /   0.5) 
   QP log K hsa Serum Protein Binding    =    -0.124  (  -1.5 /   1.5) 
   QP log BB for     brain/blood         =    -0.600  (  -3.0 /   1.2) 
   No. of Primary Metabolites            =         2  (   1.0 /   8.0) 
   Predicted CNS Activity (-- to ++)     =      +/-
   HERG K+ Channel Blockage: log IC50    =    -5.054  (concern below -5)
   Apparent Caco-2 Permeability (nm/sec) =       867  (<25 poor, >500 great)
   Apparent MDCK   Permeability (nm/sec) =       424  (<25 poor, >500 great)
   QP log Kp for skin permeability       =    -2.242  (Kp in cm/hr)
   Jm, max transdermal transport rate    =     1.164  (micrograms/cm^2-hr)
   Lipinski Rule of 5 Violations         =         0  (maximum is 4)
   Jorgensen Rule of 3 Violations        =         0  (maximum is 3)
   % Human Oral Absorption in GI (+-20%) =        92  (<25% is poor)
   Qual. Model for Human Oral Absorption =      HIGH  (>80% is high)

      An M indicates MW is outside training range.


       5 of   1712 molecules most similar to BC00679.mol:
          Name                           Similarity(%)
Guaimesal                                     88.45
Dantrolene                                    88.11
Alosetron                                     88.10
Oxyphenbutazone                               87.45
Nitrazepam                                    87.25

    QP Breakdown (< for descriptor over training max)
                log Po/w                    -log S
 H-bond Donor        -0.300    H-bond Donor        -0.402 
 H-bond Acceptor     -2.313    H-bond Acceptor     -2.487 
 Volume               5.444    SASA                 9.339 
 Ac x Dn^.5/SASA      0.428    Ac x Dn^.5/SASA      0.963 
 FISA                -0.772    Rotor Bonds         -0.488 
 Non-con amines       0.000    N Protonation        0.000 
 Non-con amides       0.000    Non-con amides       0.000 
 WPSA & PISA          0.347    WPSA                 0.000 
 Constant            -0.705    Constant            -3.783 
 Total                2.130    Total                3.143


                log BB                    log PMDCK
 Hydrophilic SASA    -0.983    Hydrophilic SASA    -1.143 
 WPSA                 0.000    WPSA                 0.000 
 Rotor Bonds         -0.181                         0.000 
 N Protonation        0.000    Non-con amines       0.000 
 FOSA                 0.000    COOH/SO3H acids      0.000 
 Constant             0.564    Constant             3.771
 Total               -0.600    Total                2.628

BC00680.mol                             
 Has an odd number of electrons or is charged 477 - molecule not processed
